<?xml version="1.0" encoding="utf-8"?>
<COLLADA xmlns="http://www.collada.org/2005/11/COLLADASchema" version="1.4.1">
	<asset>
		<contributor>
			<authoring_tool>Softimage|XSI Softimage Advanced version 7.5.191.0</authoring_tool>
		</contributor>
		<created>2010-01-25T14:07:35Z</created>
		<modified>2010-01-25T14:07:35Z</modified>
		<revision>1.4.1</revision>
		<unit meter="0.1" name="decimetre"></unit>
		<up_axis>Y_UP</up_axis>
	</asset>
	<library_cameras>
		<camera id="cameras_0">
			<optics>
				<technique_common>
					<perspective>
						<xfov>53.638000</xfov>
						<aspect_ratio>1.333333</aspect_ratio>
						<znear>0.100000</znear>
						<zfar>32768.000000</zfar>
					</perspective>
				</technique_common>
			</optics>
			<extra>
				<technique profile="XSI">
					<XSI_Camera>
						<xsi_param sid="std">9 </xsi_param>
						<xsi_param sid="aspect">0.000000 </xsi_param>
						<xsi_param sid="fov">0.000000 </xsi_param>
						<xsi_param sid="fovtype">1 </xsi_param>
						<xsi_param sid="proj">1 </xsi_param>
						<xsi_param sid="orthoheight">0.100000 </xsi_param>
						<xsi_param sid="interestdist">24.394564 </xsi_param>
						<xsi_param sid="near">0.000000 </xsi_param>
						<xsi_param sid="far">0.000000 </xsi_param>
						<xsi_param sid="projplane">FALSE </xsi_param>
						<xsi_param sid="projplanewidth">0.188976 </xsi_param>
						<xsi_param sid="projplaneheight">0.141732 </xsi_param>
						<xsi_param sid="projplaneoffx">0.000000 </xsi_param>
						<xsi_param sid="projplaneoffy">0.000000</xsi_param>
					</XSI_Camera>
					<XSI_CameraFocalLength>
						<xsi_param sid="projplanedist">4.747280</xsi_param>
					</XSI_CameraFocalLength>
				</technique>
			</extra>
		</camera>
	</library_cameras>
	<library_effects>
		<effect id="CardboardBoxes_fx">
			<profile_COMMON>
				<technique sid="default">
					<phong>
						<emission>
							<color sid="emission">0.000000 0.000000 0.000000 1.000000</color>
						</emission>
						<ambient>
							<color sid="ambient">0.300000 0.300000 0.300000 0.000000</color>
						</ambient>
						<diffuse>
							<color sid="diffuse">0.700000 0.700000 0.700000 0.000000</color>
						</diffuse>
						<specular>
							<color sid="specular">1.000000 1.000000 1.000000 0.000000</color>
						</specular>
						<shininess>
							<float sid="shininess">50.000000</float>
						</shininess>
						<reflective>
							<color sid="reflective">0.000000 0.000000 0.000000 0.000000</color>
						</reflective>
						<reflectivity>
							<float sid="reflectivity">1.000000</float>
						</reflectivity>
						<transparent opaque="RGB_ZERO">
							<color sid="transparent">0.000000 0.000000 0.000000 0.000000</color>
						</transparent>
						<transparency>
							<float sid="transparency">1.000000</float>
						</transparency>
						<index_of_refraction>
							<float sid="index_of_refraction">1.000000</float>
						</index_of_refraction>
					</phong>
				</technique>
			</profile_COMMON>
		</effect>
		<effect id="CardboardBoxesLOD_fx">
			<profile_COMMON>
				<technique sid="default">
					<phong>
						<emission>
							<color sid="emission">0.000000 0.000000 0.000000 1.000000</color>
						</emission>
						<ambient>
							<color sid="ambient">0.300000 0.300000 0.300000 0.000000</color>
						</ambient>
						<diffuse>
							<color sid="diffuse">0.700000 0.700000 0.700000 0.000000</color>
						</diffuse>
						<specular>
							<color sid="specular">1.000000 1.000000 1.000000 0.000000</color>
						</specular>
						<shininess>
							<float sid="shininess">50.000000</float>
						</shininess>
						<reflective>
							<color sid="reflective">0.000000 0.000000 0.000000 0.000000</color>
						</reflective>
						<reflectivity>
							<float sid="reflectivity">1.000000</float>
						</reflectivity>
						<transparent opaque="RGB_ZERO">
							<color sid="transparent">0.000000 0.000000 0.000000 0.000000</color>
						</transparent>
						<transparency>
							<float sid="transparency">1.000000</float>
						</transparency>
						<index_of_refraction>
							<float sid="index_of_refraction">1.000000</float>
						</index_of_refraction>
					</phong>
				</technique>
			</profile_COMMON>
		</effect>
	</library_effects>
	<library_materials>
		<material id="CardboardBoxes">
			<instance_effect url="#CardboardBoxes_fx"></instance_effect>
			<extra>
				<technique profile="XSI">
					<XSI_MaterialInfo></XSI_MaterialInfo>
				</technique>
			</extra>
		</material>
		<material id="CardboardBoxesLOD">
			<instance_effect url="#CardboardBoxesLOD_fx"></instance_effect>
			<extra>
				<technique profile="XSI">
					<XSI_MaterialInfo></XSI_MaterialInfo>
				</technique>
			</extra>
		</material>
	</library_materials>
	<library_geometries>
		<geometry id="geometries_0">
			<mesh>
				<source id="geometries_0-Pos">
					<float_array id="geometries_0-Pos-array" count="24">
						-2.011236 0.040728 -2.011236 
						2.011236 0.040728 -2.011236 
						-2.011236 4.086973 -2.011236 
						2.011236 4.086973 -2.011236 
						-2.011236 0.040728 2.011236 
						2.011236 0.040728 2.011236 
						-2.011236 4.086973 2.011236 
						2.011236 4.086973 2.011236
					</float_array>
					<technique_common>
						<accessor source="#geometries_0-Pos-array" count="8" stride="3">
							<param name="X" type="float"/>
							<param name="Y" type="float"/>
							<param name="Z" type="float"/>
						</accessor>
					</technique_common>
				</source>
				<source id="geometries_0-XSINormal">
					<float_array id="geometries_0-XSINormal-array" count="72">
						0.000000 -0.000000 -1.000000 
						0.000000 -0.000000 -1.000000 
						0.000000 -0.000000 -1.000000 
						0.000000 -0.000000 -1.000000 
						-0.000000 -1.000000 0.000000 
						-0.000000 -1.000000 0.000000 
						-0.000000 -1.000000 0.000000 
						-0.000000 -1.000000 0.000000 
						-1.000000 0.000000 -0.000000 
						-1.000000 0.000000 -0.000000 
						-1.000000 0.000000 -0.000000 
						-1.000000 0.000000 -0.000000 
						1.000000 0.000000 0.000000 
						1.000000 0.000000 0.000000 
						1.000000 0.000000 0.000000 
						1.000000 0.000000 0.000000 
						0.000000 1.000000 0.000000 
						0.000000 1.000000 0.000000 
						0.000000 1.000000 0.000000 
						0.000000 1.000000 0.000000 
						0.000000 0.000000 1.000000 
						0.000000 0.000000 1.000000 
						0.000000 0.000000 1.000000 
						0.000000 0.000000 1.000000
					</float_array>
					<technique_common>
						<accessor source="#geometries_0-XSINormal-array" count="24" stride="3">
							<param name="X" type="float"/>
							<param name="Y" type="float"/>
							<param name="Z" type="float"/>
						</accessor>
					</technique_common>
				</source>
				<source id="geometries_0-Texture_Projection">
					<float_array id="geometries_0-Texture_Projection-array" count="48">
						0.191492 0.280714 
						0.191492 0.455406 
						0.017826 0.455406 
						0.017826 0.280714 
						0.366175 0.468059 
						0.540867 0.468059 
						0.540867 0.642752 
						0.366175 0.642752 
						0.191492 0.280714 
						0.365158 0.280714 
						0.365158 0.455406 
						0.191492 0.455406 
						0.712490 0.280714 
						0.712490 0.455406 
						0.538824 0.455406 
						0.538824 0.280714 
						0.543864 0.642391 
						0.543864 0.467699 
						0.718557 0.467699 
						0.718557 0.642391 
						0.365158 0.280714 
						0.538824 0.280714 
						0.538824 0.455406 
						0.365158 0.455406
					</float_array>
					<technique_common>
						<accessor source="#geometries_0-Texture_Projection-array" count="24" stride="2">
							<param name="S" type="float"/>
							<param name="T" type="float"/>
						</accessor>
					</technique_common>
				</source>
				<vertices id="geometries_0-Vtx">
					<input semantic="POSITION" source="#geometries_0-Pos"/>
				</vertices>
				<polylist count="6" material="CardboardBoxes">
					<input semantic="VERTEX" source="#geometries_0-Vtx" offset="0"/>
					<input semantic="NORMAL" source="#geometries_0-XSINormal" offset="1"/>
					<input semantic="TEXCOORD" source="#geometries_0-Texture_Projection" offset="2"/>
					<vcount>
						4 4 4 4 
						4 4
					</vcount>
					<p>
						0 0 0 
						2 1 1 
						3 2 2 
						1 3 3 
						0 4 4 
						1 5 5 
						5 6 6 
						4 7 7 
						0 8 8 
						4 9 9 
						6 10 10 
						2 11 11 
						1 12 12 
						3 13 13 
						7 14 14 
						5 15 15 
						2 16 16 
						6 17 17 
						7 18 18 
						3 19 19 
						4 20 20 
						5 21 21 
						7 22 22 
						6 23 23
					</p>
				</polylist>
			</mesh>
			<extra>
				<technique profile="XSI">
					<XSI_VertexList>
						<xsi_param sid="Attributes"> </xsi_param>
						<xsi_param sid="nbAttributes">8 </xsi_param>
						<xsi_param sid="position">0 1 2 3 4 5 6 7</xsi_param>
					</XSI_VertexList>
				</technique>
			</extra>
		</geometry>
		<geometry id="geometries_1">
			<mesh>
				<source id="geometries_1-Pos">
					<float_array id="geometries_1-Pos-array" count="9">
						-2.011236 0.040728 2.011236 
						2.011236 0.040728 -2.011236 
						2.011236 0.040728 2.011236
					</float_array>
					<technique_common>
						<accessor source="#geometries_1-Pos-array" count="3" stride="3">
							<param name="X" type="float"/>
							<param name="Y" type="float"/>
							<param name="Z" type="float"/>
						</accessor>
					</technique_common>
				</source>
				<source id="geometries_1-XSINormal">
					<float_array id="geometries_1-XSINormal-array" count="9">
						-0.000000 -1.000000 0.000000 
						-0.000000 -1.000000 0.000000 
						-0.000000 -1.000000 0.000000
					</float_array>
					<technique_common>
						<accessor source="#geometries_1-XSINormal-array" count="3" stride="3">
							<param name="X" type="float"/>
							<param name="Y" type="float"/>
							<param name="Z" type="float"/>
						</accessor>
					</technique_common>
				</source>
				<source id="geometries_1-Texture_Projection">
					<float_array id="geometries_1-Texture_Projection-array" count="6">
						0.366175 0.642752 
						0.540867 0.642752 
						0.540867 0.468059
					</float_array>
					<technique_common>
						<accessor source="#geometries_1-Texture_Projection-array" count="3" stride="2">
							<param name="S" type="float"/>
							<param name="T" type="float"/>
						</accessor>
					</technique_common>
				</source>
				<vertices id="geometries_1-Vtx">
					<input semantic="POSITION" source="#geometries_1-Pos"/>
				</vertices>
				<polylist count="1" material="CardboardBoxesLOD">
					<input semantic="VERTEX" source="#geometries_1-Vtx" offset="0"/>
					<input semantic="NORMAL" source="#geometries_1-XSINormal" offset="1"/>
					<input semantic="TEXCOORD" source="#geometries_1-Texture_Projection" offset="2"/>
					<vcount>
						3
					</vcount>
					<p>
						1 2 2 
						2 1 1 
						0 0 0
					</p>
				</polylist>
			</mesh>
			<extra>
				<technique profile="XSI">
					<XSI_VertexList>
						<xsi_param sid="Attributes"> </xsi_param>
						<xsi_param sid="nbAttributes">3 </xsi_param>
						<xsi_param sid="position">0 1 2</xsi_param>
					</XSI_VertexList>
				</technique>
			</extra>
		</geometry>
		<geometry id="geometries_2">
			<mesh>
				<source id="geometries_2-Pos">
					<float_array id="geometries_2-Pos-array" count="24">
						-4.000000 -4.000000 -4.000000 
						4.000000 -4.000000 -4.000000 
						-4.000000 4.000000 -4.000000 
						4.000000 4.000000 -4.000000 
						-4.000000 -4.000000 4.000000 
						4.000000 -4.000000 4.000000 
						-4.000000 4.000000 4.000000 
						4.000000 4.000000 4.000000
					</float_array>
					<technique_common>
						<accessor source="#geometries_2-Pos-array" count="8" stride="3">
							<param name="X" type="float"/>
							<param name="Y" type="float"/>
							<param name="Z" type="float"/>
						</accessor>
					</technique_common>
				</source>
				<source id="geometries_2-XSINormal">
					<float_array id="geometries_2-XSINormal-array" count="72">
						0.000000 -0.000000 -1.000000 
						0.000000 -0.000000 -1.000000 
						0.000000 -0.000000 -1.000000 
						0.000000 -0.000000 -1.000000 
						-0.000000 -1.000000 0.000000 
						-0.000000 -1.000000 0.000000 
						-0.000000 -1.000000 0.000000 
						-0.000000 -1.000000 0.000000 
						-1.000000 0.000000 -0.000000 
						-1.000000 0.000000 -0.000000 
						-1.000000 0.000000 -0.000000 
						-1.000000 0.000000 -0.000000 
						1.000000 0.000000 0.000000 
						1.000000 0.000000 0.000000 
						1.000000 0.000000 0.000000 
						1.000000 0.000000 0.000000 
						0.000000 1.000000 0.000000 
						0.000000 1.000000 0.000000 
						0.000000 1.000000 0.000000 
						0.000000 1.000000 0.000000 
						0.000000 0.000000 1.000000 
						0.000000 0.000000 1.000000 
						0.000000 0.000000 1.000000 
						0.000000 0.000000 1.000000
					</float_array>
					<technique_common>
						<accessor source="#geometries_2-XSINormal-array" count="24" stride="3">
							<param name="X" type="float"/>
							<param name="Y" type="float"/>
							<param name="Z" type="float"/>
						</accessor>
					</technique_common>
				</source>
				<vertices id="geometries_2-Vtx">
					<input semantic="POSITION" source="#geometries_2-Pos"/>
				</vertices>
				<polylist count="6" material="CardboardBoxes">
					<input semantic="VERTEX" source="#geometries_2-Vtx" offset="0"/>
					<input semantic="NORMAL" source="#geometries_2-XSINormal" offset="1"/>
					<vcount>
						4 4 4 4 
						4 4
					</vcount>
					<p>
						0 0 
						2 1 
						3 2 
						1 3 
						0 4 
						1 5 
						5 6 
						4 7 
						0 8 
						4 9 
						6 10 
						2 11 
						1 12 
						3 13 
						7 14 
						5 15 
						2 16 
						6 17 
						7 18 
						3 19 
						4 20 
						5 21 
						7 22 
						6 23
					</p>
				</polylist>
			</mesh>
			<extra>
				<technique profile="XSI">
					<XSI_VertexList>
						<xsi_param sid="Attributes"> </xsi_param>
						<xsi_param sid="nbAttributes">8 </xsi_param>
						<xsi_param sid="position">0 1 2 3 4 5 6 7</xsi_param>
					</XSI_VertexList>
				</technique>
			</extra>
		</geometry>
	</library_geometries>
	<library_visual_scenes>
		<visual_scene id="visual_scenes_0" name="untitled">
			<node id="base01">
				<translate sid="translation">0.000000 0.000000 0.000000</translate>
				<rotate sid="rotation_z">0.000000 0.000000 1.000000 0.000000</rotate>
				<rotate sid="rotation_y">0.000000 1.000000 0.000000 0.000000</rotate>
				<rotate sid="rotation_x">1.000000 0.000000 0.000000 0.000000</rotate>
				<scale sid="scale">1.000000 1.000000 1.000000</scale>
				<node id="Camera_Root">
					<translate sid="translation">0.000000 2.000000 20.000000</translate>
					<rotate sid="rotation_z">0.000000 0.000000 1.000000 0.000000</rotate>
					<rotate sid="rotation_y">0.000000 1.000000 0.000000 0.000000</rotate>
					<rotate sid="rotation_x">1.000000 0.000000 0.000000 0.000000</rotate>
					<scale sid="scale">1.000000 1.000000 1.000000</scale>
					<node id="Camera">
						<translate sid="translation">-11.335579 17.298532 -33.021721</translate>
						<rotate sid="rotation_z">0.000000 0.000000 1.000000 -0.000001</rotate>
						<rotate sid="rotation_y">0.000000 1.000000 0.000000 -138.960007</rotate>
						<rotate sid="rotation_x">1.000000 0.000000 0.000000 -44.950592</rotate>
						<scale sid="scale">1.000000 1.000000 1.000000</scale>
						<instance_camera url="#cameras_0"/>
						<extra>
							<technique profile="XSI">
								<SI_Visibility>
									<xsi_param sid="visibility">FALSE</xsi_param>
								</SI_Visibility>
								<XSI_Transform>
									<xsi_param sid="rotorder">"XYZ" </xsi_param>
									<xsi_param sid="siscaling">TRUE</xsi_param>
									<XSI_Limit>
										<xsi_param sid="parameter">"posx" </xsi_param>
										<xsi_param sid="minactive">FALSE </xsi_param>
										<xsi_param sid="minlimit">0.000000 </xsi_param>
										<xsi_param sid="maxactive">FALSE </xsi_param>
										<xsi_param sid="maxlimit">0.000000</xsi_param>
									</XSI_Limit>
									<XSI_Limit>
										<xsi_param sid="parameter">"posy" </xsi_param>
										<xsi_param sid="minactive">FALSE </xsi_param>
										<xsi_param sid="minlimit">0.000000 </xsi_param>
										<xsi_param sid="maxactive">FALSE </xsi_param>
										<xsi_param sid="maxlimit">0.000000</xsi_param>
									</XSI_Limit>
									<XSI_Limit>
										<xsi_param sid="parameter">"posz" </xsi_param>
										<xsi_param sid="minactive">FALSE </xsi_param>
										<xsi_param sid="minlimit">0.000000 </xsi_param>
										<xsi_param sid="maxactive">FALSE </xsi_param>
										<xsi_param sid="maxlimit">0.000000</xsi_param>
									</XSI_Limit>
									<XSI_Limit>
										<xsi_param sid="parameter">"rotx" </xsi_param>
										<xsi_param sid="minactive">FALSE </xsi_param>
										<xsi_param sid="minlimit">0.000000 </xsi_param>
										<xsi_param sid="maxactive">FALSE </xsi_param>
										<xsi_param sid="maxlimit">0.000000</xsi_param>
									</XSI_Limit>
									<XSI_Limit>
										<xsi_param sid="parameter">"roty" </xsi_param>
										<xsi_param sid="minactive">FALSE </xsi_param>
										<xsi_param sid="minlimit">0.000000 </xsi_param>
										<xsi_param sid="maxactive">FALSE </xsi_param>
										<xsi_param sid="maxlimit">0.000000</xsi_param>
									</XSI_Limit>
									<XSI_Limit>
										<xsi_param sid="parameter">"rotz" </xsi_param>
										<xsi_param sid="minactive">FALSE </xsi_param>
										<xsi_param sid="minlimit">0.000000 </xsi_param>
										<xsi_param sid="maxactive">FALSE </xsi_param>
										<xsi_param sid="maxlimit">0.000000</xsi_param>
									</XSI_Limit>
								</XSI_Transform>
							</technique>
						</extra>
					</node>
					<node id="Camera_Interest">
						<translate sid="translation">0.000000 0.063851 -20.000000</translate>
						<rotate sid="rotation_z">0.000000 0.000000 1.000000 0.000000</rotate>
						<rotate sid="rotation_y">0.000000 1.000000 0.000000 0.000000</rotate>
						<rotate sid="rotation_x">1.000000 0.000000 0.000000 0.000000</rotate>
						<scale sid="scale">1.000000 1.000000 1.000000</scale>
						<extra>
							<technique profile="XSI">
								<SI_Visibility>
									<xsi_param sid="visibility">FALSE</xsi_param>
								</SI_Visibility>
								<XSI_Transform>
									<xsi_param sid="rotorder">"XYZ" </xsi_param>
									<xsi_param sid="siscaling">TRUE</xsi_param>
									<XSI_Limit>
										<xsi_param sid="parameter">"posx" </xsi_param>
										<xsi_param sid="minactive">FALSE </xsi_param>
										<xsi_param sid="minlimit">0.000000 </xsi_param>
										<xsi_param sid="maxactive">FALSE </xsi_param>
										<xsi_param sid="maxlimit">0.000000</xsi_param>
									</XSI_Limit>
									<XSI_Limit>
										<xsi_param sid="parameter">"posy" </xsi_param>
										<xsi_param sid="minactive">FALSE </xsi_param>
										<xsi_param sid="minlimit">0.000000 </xsi_param>
										<xsi_param sid="maxactive">FALSE </xsi_param>
										<xsi_param sid="maxlimit">0.000000</xsi_param>
									</XSI_Limit>
									<XSI_Limit>
										<xsi_param sid="parameter">"posz" </xsi_param>
										<xsi_param sid="minactive">FALSE </xsi_param>
										<xsi_param sid="minlimit">0.000000 </xsi_param>
										<xsi_param sid="maxactive">FALSE </xsi_param>
										<xsi_param sid="maxlimit">0.000000</xsi_param>
									</XSI_Limit>
									<XSI_Limit>
										<xsi_param sid="parameter">"rotx" </xsi_param>
										<xsi_param sid="minactive">FALSE </xsi_param>
										<xsi_param sid="minlimit">0.000000 </xsi_param>
										<xsi_param sid="maxactive">FALSE </xsi_param>
										<xsi_param sid="maxlimit">0.000000</xsi_param>
									</XSI_Limit>
									<XSI_Limit>
										<xsi_param sid="parameter">"roty" </xsi_param>
										<xsi_param sid="minactive">FALSE </xsi_param>
										<xsi_param sid="minlimit">0.000000 </xsi_param>
										<xsi_param sid="maxactive">FALSE </xsi_param>
										<xsi_param sid="maxlimit">0.000000</xsi_param>
									</XSI_Limit>
									<XSI_Limit>
										<xsi_param sid="parameter">"rotz" </xsi_param>
										<xsi_param sid="minactive">FALSE </xsi_param>
										<xsi_param sid="minlimit">0.000000 </xsi_param>
										<xsi_param sid="maxactive">FALSE </xsi_param>
										<xsi_param sid="maxlimit">0.000000</xsi_param>
									</XSI_Limit>
								</XSI_Transform>
								<SI_Null name="Camera_Interest">
								</SI_Null>
							</technique>
						</extra>
					</node>
					<extra>
						<technique profile="XSI">
							<SI_Visibility>
								<xsi_param sid="visibility">FALSE</xsi_param>
							</SI_Visibility>
							<XSI_Transform>
								<xsi_param sid="rotorder">"XYZ" </xsi_param>
								<xsi_param sid="siscaling">TRUE</xsi_param>
								<XSI_Limit>
									<xsi_param sid="parameter">"posx" </xsi_param>
									<xsi_param sid="minactive">FALSE </xsi_param>
									<xsi_param sid="minlimit">0.000000 </xsi_param>
									<xsi_param sid="maxactive">FALSE </xsi_param>
									<xsi_param sid="maxlimit">0.000000</xsi_param>
								</XSI_Limit>
								<XSI_Limit>
									<xsi_param sid="parameter">"posy" </xsi_param>
									<xsi_param sid="minactive">FALSE </xsi_param>
									<xsi_param sid="minlimit">0.000000 </xsi_param>
									<xsi_param sid="maxactive">FALSE </xsi_param>
									<xsi_param sid="maxlimit">0.000000</xsi_param>
								</XSI_Limit>
								<XSI_Limit>
									<xsi_param sid="parameter">"posz" </xsi_param>
									<xsi_param sid="minactive">FALSE </xsi_param>
									<xsi_param sid="minlimit">0.000000 </xsi_param>
									<xsi_param sid="maxactive">FALSE </xsi_param>
									<xsi_param sid="maxlimit">0.000000</xsi_param>
								</XSI_Limit>
								<XSI_Limit>
									<xsi_param sid="parameter">"rotx" </xsi_param>
									<xsi_param sid="minactive">FALSE </xsi_param>
									<xsi_param sid="minlimit">0.000000 </xsi_param>
									<xsi_param sid="maxactive">FALSE </xsi_param>
									<xsi_param sid="maxlimit">0.000000</xsi_param>
								</XSI_Limit>
								<XSI_Limit>
									<xsi_param sid="parameter">"roty" </xsi_param>
									<xsi_param sid="minactive">FALSE </xsi_param>
									<xsi_param sid="minlimit">0.000000 </xsi_param>
									<xsi_param sid="maxactive">FALSE </xsi_param>
									<xsi_param sid="maxlimit">0.000000</xsi_param>
								</XSI_Limit>
								<XSI_Limit>
									<xsi_param sid="parameter">"rotz" </xsi_param>
									<xsi_param sid="minactive">FALSE </xsi_param>
									<xsi_param sid="minlimit">0.000000 </xsi_param>
									<xsi_param sid="maxactive">FALSE </xsi_param>
									<xsi_param sid="maxlimit">0.000000</xsi_param>
								</XSI_Limit>
							</XSI_Transform>
							<SI_Null name="Camera_Root">
							</SI_Null>
						</technique>
					</extra>
				</node>
				<node id="start01">
					<translate sid="translation">0.000000 0.000000 0.000000</translate>
					<rotate sid="rotation_z">0.000000 0.000000 1.000000 0.000000</rotate>
					<rotate sid="rotation_y">0.000000 1.000000 0.000000 0.000000</rotate>
					<rotate sid="rotation_x">1.000000 0.000000 0.000000 0.000000</rotate>
					<scale sid="scale">1.000000 1.000000 1.000000</scale>
					<node id="box_a60">
						<translate sid="translation">0.000000 0.000000 0.000000</translate>
						<rotate sid="rotation_z">0.000000 0.000000 1.000000 0.000000</rotate>
						<rotate sid="rotation_y">0.000000 1.000000 0.000000 0.000000</rotate>
						<rotate sid="rotation_x">1.000000 0.000000 0.000000 0.000000</rotate>
						<scale sid="scale">1.000000 1.000000 1.000000</scale>
						<instance_geometry url="#geometries_0">
							<bind_material>
								<technique_common>
									<instance_material symbol="CardboardBoxes" target="#CardboardBoxes"></instance_material>
								</technique_common>
							</bind_material>
						</instance_geometry>
						<extra>
							<technique profile="XSI">
								<SI_Visibility>
									<xsi_param sid="visibility">TRUE</xsi_param>
								</SI_Visibility>
								<XSI_Transform>
									<xsi_param sid="rotorder">"XYZ" </xsi_param>
									<xsi_param sid="siscaling">TRUE</xsi_param>
									<XSI_Limit>
										<xsi_param sid="parameter">"posx" </xsi_param>
										<xsi_param sid="minactive">FALSE </xsi_param>
										<xsi_param sid="minlimit">0.000000 </xsi_param>
										<xsi_param sid="maxactive">FALSE </xsi_param>
										<xsi_param sid="maxlimit">0.000000</xsi_param>
									</XSI_Limit>
									<XSI_Limit>
										<xsi_param sid="parameter">"posy" </xsi_param>
										<xsi_param sid="minactive">FALSE </xsi_param>
										<xsi_param sid="minlimit">0.000000 </xsi_param>
										<xsi_param sid="maxactive">FALSE </xsi_param>
										<xsi_param sid="maxlimit">0.000000</xsi_param>
									</XSI_Limit>
									<XSI_Limit>
										<xsi_param sid="parameter">"posz" </xsi_param>
										<xsi_param sid="minactive">FALSE </xsi_param>
										<xsi_param sid="minlimit">0.000000 </xsi_param>
										<xsi_param sid="maxactive">FALSE </xsi_param>
										<xsi_param sid="maxlimit">0.000000</xsi_param>
									</XSI_Limit>
									<XSI_Limit>
										<xsi_param sid="parameter">"rotx" </xsi_param>
										<xsi_param sid="minactive">FALSE </xsi_param>
										<xsi_param sid="minlimit">0.000000 </xsi_param>
										<xsi_param sid="maxactive">FALSE </xsi_param>
										<xsi_param sid="maxlimit">0.000000</xsi_param>
									</XSI_Limit>
									<XSI_Limit>
										<xsi_param sid="parameter">"roty" </xsi_param>
										<xsi_param sid="minactive">FALSE </xsi_param>
										<xsi_param sid="minlimit">0.000000 </xsi_param>
										<xsi_param sid="maxactive">FALSE </xsi_param>
										<xsi_param sid="maxlimit">0.000000</xsi_param>
									</XSI_Limit>
									<XSI_Limit>
										<xsi_param sid="parameter">"rotz" </xsi_param>
										<xsi_param sid="minactive">FALSE </xsi_param>
										<xsi_param sid="minlimit">0.000000 </xsi_param>
										<xsi_param sid="maxactive">FALSE </xsi_param>
										<xsi_param sid="maxlimit">0.000000</xsi_param>
									</XSI_Limit>
								</XSI_Transform>
								<SI_GlobalMaterial>
									<xsi_param sid="reference">"CardboardBoxes" </xsi_param>
									<xsi_param sid="propagation">"NODE"</xsi_param>
								</SI_GlobalMaterial>
							</technique>
						</extra>
					</node>
					<node id="box_a-1">
						<translate sid="translation">0.000000 0.000000 0.000000</translate>
						<rotate sid="rotation_z">0.000000 0.000000 1.000000 0.000000</rotate>
						<rotate sid="rotation_y">0.000000 1.000000 0.000000 0.000000</rotate>
						<rotate sid="rotation_x">1.000000 0.000000 0.000000 0.000000</rotate>
						<scale sid="scale">0.001000 0.001000 0.001000</scale>
						<instance_geometry url="#geometries_1">
							<bind_material>
								<technique_common>
									<instance_material symbol="CardboardBoxesLOD" target="#CardboardBoxesLOD"></instance_material>
								</technique_common>
							</bind_material>
						</instance_geometry>
						<extra>
							<technique profile="XSI">
								<SI_Visibility>
									<xsi_param sid="visibility">FALSE</xsi_param>
								</SI_Visibility>
								<XSI_Transform>
									<xsi_param sid="rotorder">"XYZ" </xsi_param>
									<xsi_param sid="siscaling">TRUE</xsi_param>
									<XSI_Limit>
										<xsi_param sid="parameter">"posx" </xsi_param>
										<xsi_param sid="minactive">FALSE </xsi_param>
										<xsi_param sid="minlimit">0.000000 </xsi_param>
										<xsi_param sid="maxactive">FALSE </xsi_param>
										<xsi_param sid="maxlimit">0.000000</xsi_param>
									</XSI_Limit>
									<XSI_Limit>
										<xsi_param sid="parameter">"posy" </xsi_param>
										<xsi_param sid="minactive">FALSE </xsi_param>
										<xsi_param sid="minlimit">0.000000 </xsi_param>
										<xsi_param sid="maxactive">FALSE </xsi_param>
										<xsi_param sid="maxlimit">0.000000</xsi_param>
									</XSI_Limit>
									<XSI_Limit>
										<xsi_param sid="parameter">"posz" </xsi_param>
										<xsi_param sid="minactive">FALSE </xsi_param>
										<xsi_param sid="minlimit">0.000000 </xsi_param>
										<xsi_param sid="maxactive">FALSE </xsi_param>
										<xsi_param sid="maxlimit">0.000000</xsi_param>
									</XSI_Limit>
									<XSI_Limit>
										<xsi_param sid="parameter">"rotx" </xsi_param>
										<xsi_param sid="minactive">FALSE </xsi_param>
										<xsi_param sid="minlimit">0.000000 </xsi_param>
										<xsi_param sid="maxactive">FALSE </xsi_param>
										<xsi_param sid="maxlimit">0.000000</xsi_param>
									</XSI_Limit>
									<XSI_Limit>
										<xsi_param sid="parameter">"roty" </xsi_param>
										<xsi_param sid="minactive">FALSE </xsi_param>
										<xsi_param sid="minlimit">0.000000 </xsi_param>
										<xsi_param sid="maxactive">FALSE </xsi_param>
										<xsi_param sid="maxlimit">0.000000</xsi_param>
									</XSI_Limit>
									<XSI_Limit>
										<xsi_param sid="parameter">"rotz" </xsi_param>
										<xsi_param sid="minactive">FALSE </xsi_param>
										<xsi_param sid="minlimit">0.000000 </xsi_param>
										<xsi_param sid="maxactive">FALSE </xsi_param>
										<xsi_param sid="maxlimit">0.000000</xsi_param>
									</XSI_Limit>
								</XSI_Transform>
								<SI_GlobalMaterial>
									<xsi_param sid="reference">"CardboardBoxesLOD" </xsi_param>
									<xsi_param sid="propagation">"NODE"</xsi_param>
								</SI_GlobalMaterial>
							</technique>
						</extra>
					</node>
					<node id="col-1">
						<translate sid="translation">0.000000 2.060156 0.000000</translate>
						<rotate sid="rotation_z">0.000000 0.000000 1.000000 0.000000</rotate>
						<rotate sid="rotation_y">0.000000 1.000000 0.000000 0.000000</rotate>
						<rotate sid="rotation_x">1.000000 0.000000 0.000000 0.000000</rotate>
						<scale sid="scale">0.504406 0.504163 0.504406</scale>
						<instance_geometry url="#geometries_2">
							<bind_material>
								<technique_common>
									<instance_material symbol="CardboardBoxes" target="#CardboardBoxes"></instance_material>
								</technique_common>
							</bind_material>
						</instance_geometry>
						<extra>
							<technique profile="XSI">
								<SI_Visibility>
									<xsi_param sid="visibility">TRUE</xsi_param>
								</SI_Visibility>
								<XSI_Transform>
									<xsi_param sid="rotorder">"XYZ" </xsi_param>
									<xsi_param sid="siscaling">TRUE</xsi_param>
									<XSI_Limit>
										<xsi_param sid="parameter">"posx" </xsi_param>
										<xsi_param sid="minactive">FALSE </xsi_param>
										<xsi_param sid="minlimit">0.000000 </xsi_param>
										<xsi_param sid="maxactive">FALSE </xsi_param>
										<xsi_param sid="maxlimit">0.000000</xsi_param>
									</XSI_Limit>
									<XSI_Limit>
										<xsi_param sid="parameter">"posy" </xsi_param>
										<xsi_param sid="minactive">FALSE </xsi_param>
										<xsi_param sid="minlimit">0.000000 </xsi_param>
										<xsi_param sid="maxactive">FALSE </xsi_param>
										<xsi_param sid="maxlimit">0.000000</xsi_param>
									</XSI_Limit>
									<XSI_Limit>
										<xsi_param sid="parameter">"posz" </xsi_param>
										<xsi_param sid="minactive">FALSE </xsi_param>
										<xsi_param sid="minlimit">0.000000 </xsi_param>
										<xsi_param sid="maxactive">FALSE </xsi_param>
										<xsi_param sid="maxlimit">0.000000</xsi_param>
									</XSI_Limit>
									<XSI_Limit>
										<xsi_param sid="parameter">"rotx" </xsi_param>
										<xsi_param sid="minactive">FALSE </xsi_param>
										<xsi_param sid="minlimit">0.000000 </xsi_param>
										<xsi_param sid="maxactive">FALSE </xsi_param>
										<xsi_param sid="maxlimit">0.000000</xsi_param>
									</XSI_Limit>
									<XSI_Limit>
										<xsi_param sid="parameter">"roty" </xsi_param>
										<xsi_param sid="minactive">FALSE </xsi_param>
										<xsi_param sid="minlimit">0.000000 </xsi_param>
										<xsi_param sid="maxactive">FALSE </xsi_param>
										<xsi_param sid="maxlimit">0.000000</xsi_param>
									</XSI_Limit>
									<XSI_Limit>
										<xsi_param sid="parameter">"rotz" </xsi_param>
										<xsi_param sid="minactive">FALSE </xsi_param>
										<xsi_param sid="minlimit">0.000000 </xsi_param>
										<xsi_param sid="maxactive">FALSE </xsi_param>
										<xsi_param sid="maxlimit">0.000000</xsi_param>
									</XSI_Limit>
								</XSI_Transform>
								<SI_GlobalMaterial>
									<xsi_param sid="reference">"CardboardBoxes" </xsi_param>
									<xsi_param sid="propagation">"NODE"</xsi_param>
								</SI_GlobalMaterial>
							</technique>
						</extra>
					</node>
					<extra>
						<technique profile="XSI">
							<SI_Visibility>
								<xsi_param sid="visibility">FALSE</xsi_param>
							</SI_Visibility>
							<XSI_Transform>
								<xsi_param sid="rotorder">"XYZ" </xsi_param>
								<xsi_param sid="siscaling">TRUE</xsi_param>
								<XSI_Limit>
									<xsi_param sid="parameter">"posx" </xsi_param>
									<xsi_param sid="minactive">FALSE </xsi_param>
									<xsi_param sid="minlimit">0.000000 </xsi_param>
									<xsi_param sid="maxactive">FALSE </xsi_param>
									<xsi_param sid="maxlimit">0.000000</xsi_param>
								</XSI_Limit>
								<XSI_Limit>
									<xsi_param sid="parameter">"posy" </xsi_param>
									<xsi_param sid="minactive">FALSE </xsi_param>
									<xsi_param sid="minlimit">0.000000 </xsi_param>
									<xsi_param sid="maxactive">FALSE </xsi_param>
									<xsi_param sid="maxlimit">0.000000</xsi_param>
								</XSI_Limit>
								<XSI_Limit>
									<xsi_param sid="parameter">"posz" </xsi_param>
									<xsi_param sid="minactive">FALSE </xsi_param>
									<xsi_param sid="minlimit">0.000000 </xsi_param>
									<xsi_param sid="maxactive">FALSE </xsi_param>
									<xsi_param sid="maxlimit">0.000000</xsi_param>
								</XSI_Limit>
								<XSI_Limit>
									<xsi_param sid="parameter">"rotx" </xsi_param>
									<xsi_param sid="minactive">FALSE </xsi_param>
									<xsi_param sid="minlimit">0.000000 </xsi_param>
									<xsi_param sid="maxactive">FALSE </xsi_param>
									<xsi_param sid="maxlimit">0.000000</xsi_param>
								</XSI_Limit>
								<XSI_Limit>
									<xsi_param sid="parameter">"roty" </xsi_param>
									<xsi_param sid="minactive">FALSE </xsi_param>
									<xsi_param sid="minlimit">0.000000 </xsi_param>
									<xsi_param sid="maxactive">FALSE </xsi_param>
									<xsi_param sid="maxlimit">0.000000</xsi_param>
								</XSI_Limit>
								<XSI_Limit>
									<xsi_param sid="parameter">"rotz" </xsi_param>
									<xsi_param sid="minactive">FALSE </xsi_param>
									<xsi_param sid="minlimit">0.000000 </xsi_param>
									<xsi_param sid="maxactive">FALSE </xsi_param>
									<xsi_param sid="maxlimit">0.000000</xsi_param>
								</XSI_Limit>
							</XSI_Transform>
							<SI_Null name="start01">
							</SI_Null>
						</technique>
					</extra>
				</node>
				<node id="collision1">
					<translate sid="translation">0.000000 0.000000 0.000000</translate>
					<rotate sid="rotation_z">0.000000 0.000000 1.000000 0.000000</rotate>
					<rotate sid="rotation_y">0.000000 1.000000 0.000000 0.000000</rotate>
					<rotate sid="rotation_x">1.000000 0.000000 0.000000 0.000000</rotate>
					<scale sid="scale">1.000000 1.000000 1.000000</scale>
					<extra>
						<technique profile="XSI">
							<SI_Visibility>
								<xsi_param sid="visibility">FALSE</xsi_param>
							</SI_Visibility>
							<XSI_Transform>
								<xsi_param sid="rotorder">"XYZ" </xsi_param>
								<xsi_param sid="siscaling">TRUE</xsi_param>
								<XSI_Limit>
									<xsi_param sid="parameter">"posx" </xsi_param>
									<xsi_param sid="minactive">FALSE </xsi_param>
									<xsi_param sid="minlimit">0.000000 </xsi_param>
									<xsi_param sid="maxactive">FALSE </xsi_param>
									<xsi_param sid="maxlimit">0.000000</xsi_param>
								</XSI_Limit>
								<XSI_Limit>
									<xsi_param sid="parameter">"posy" </xsi_param>
									<xsi_param sid="minactive">FALSE </xsi_param>
									<xsi_param sid="minlimit">0.000000 </xsi_param>
									<xsi_param sid="maxactive">FALSE </xsi_param>
									<xsi_param sid="maxlimit">0.000000</xsi_param>
								</XSI_Limit>
								<XSI_Limit>
									<xsi_param sid="parameter">"posz" </xsi_param>
									<xsi_param sid="minactive">FALSE </xsi_param>
									<xsi_param sid="minlimit">0.000000 </xsi_param>
									<xsi_param sid="maxactive">FALSE </xsi_param>
									<xsi_param sid="maxlimit">0.000000</xsi_param>
								</XSI_Limit>
								<XSI_Limit>
									<xsi_param sid="parameter">"rotx" </xsi_param>
									<xsi_param sid="minactive">FALSE </xsi_param>
									<xsi_param sid="minlimit">0.000000 </xsi_param>
									<xsi_param sid="maxactive">FALSE </xsi_param>
									<xsi_param sid="maxlimit">0.000000</xsi_param>
								</XSI_Limit>
								<XSI_Limit>
									<xsi_param sid="parameter">"roty" </xsi_param>
									<xsi_param sid="minactive">FALSE </xsi_param>
									<xsi_param sid="minlimit">0.000000 </xsi_param>
									<xsi_param sid="maxactive">FALSE </xsi_param>
									<xsi_param sid="maxlimit">0.000000</xsi_param>
								</XSI_Limit>
								<XSI_Limit>
									<xsi_param sid="parameter">"rotz" </xsi_param>
									<xsi_param sid="minactive">FALSE </xsi_param>
									<xsi_param sid="minlimit">0.000000 </xsi_param>
									<xsi_param sid="maxactive">FALSE </xsi_param>
									<xsi_param sid="maxlimit">0.000000</xsi_param>
								</XSI_Limit>
							</XSI_Transform>
							<SI_Null name="collision1">
							</SI_Null>
						</technique>
					</extra>
				</node>
				<extra>
					<technique profile="XSI">
						<SI_Visibility>
							<xsi_param sid="visibility">TRUE</xsi_param>
						</SI_Visibility>
						<XSI_Transform>
							<xsi_param sid="rotorder">"XYZ" </xsi_param>
							<xsi_param sid="siscaling">TRUE</xsi_param>
						</XSI_Transform>
						<XSI_CustomPSet name="ImportCrosswalkOptions">
							<propagation>NODE</propagation>
							<type>ImportCrosswalkOptions</type>
							<XSI_Parameter id="Filename" type="Text" value="D:\Work\T3D\My Projects\ChinaTown\game\art\shapes\props\Cardboard_boxes\box_01.dae"/>
							<XSI_Parameter id="Verbose" type="Boolean" value="1"/>
							<XSI_Parameter id="OptimizeForXSI" type="Boolean" value="1"/>
							<XSI_Parameter id="ImportTimelineSettings" type="Boolean" value="1"/>
							<XSI_Parameter id="Target" type="Text" value="0"/>
							<XSI_Parameter id="Target1" type="Integer" value="0"/>
							<XSI_CustomParamInfo name="Verbose">
								<xsi_param sid="MinValue">TRUE </xsi_param>
								<xsi_param sid="MaxValue">TRUE </xsi_param>
								<xsi_param sid="Capabilities"></xsi_param>
							</XSI_CustomParamInfo>
							<XSI_CustomParamInfo name="OptimizeForXSI">
								<xsi_param sid="MinValue">TRUE </xsi_param>
								<xsi_param sid="MaxValue">TRUE </xsi_param>
								<xsi_param sid="Capabilities"></xsi_param>
							</XSI_CustomParamInfo>
							<XSI_CustomParamInfo name="ImportTimelineSettings">
								<xsi_param sid="MinValue">TRUE </xsi_param>
								<xsi_param sid="MaxValue">TRUE </xsi_param>
								<xsi_param sid="Capabilities"></xsi_param>
							</XSI_CustomParamInfo>
							<XSI_CustomParamInfo name="Target1">
								<xsi_param sid="MinValue">0 </xsi_param>
								<xsi_param sid="MaxValue">0 </xsi_param>
								<xsi_param sid="Capabilities"></xsi_param>
							</XSI_CustomParamInfo>
						</XSI_CustomPSet>
					</technique>
				</extra>
			</node>
		</visual_scene>
	</library_visual_scenes>
	<scene>
		<instance_visual_scene url="#visual_scenes_0"/>
	</scene>
	<extra>
		<technique profile="XSI">
			<SI_Scene>
				<xsi_param sid="timing">"SECONDS" </xsi_param>
				<xsi_param sid="start">1.000000 </xsi_param>
				<xsi_param sid="end">100.000000 </xsi_param>
				<xsi_param sid="frameRate">29.970030</xsi_param>
			</SI_Scene>
			<SI_Angle>
				<xsi_param sid="type">0</xsi_param>
			</SI_Angle>
			<SI_Ambience>
				<xsi_param sid="red">0.000000 </xsi_param>
				<xsi_param sid="green">0.000000 </xsi_param>
				<xsi_param sid="blue">0.000000</xsi_param>
			</SI_Ambience>
			<SI_CoordinateSystem>
				<xsi_param sid="handRotation">1 </xsi_param>
				<xsi_param sid="uAxis">0 </xsi_param>
				<xsi_param sid="vAxis">1 </xsi_param>
				<xsi_param sid="xAxis">0 </xsi_param>
				<xsi_param sid="yAxis">2 </xsi_param>
				<xsi_param sid="zAxis">5</xsi_param>
			</SI_CoordinateSystem>
			<XSI_PolygonList>
				<xsi_param sid="Attributes"> </xsi_param>
				<xsi_param sid="Material">"" </xsi_param>
				<xsi_param sid="NbPolynodes">0 </xsi_param>
				<xsi_param sid="NbPolygons">0 </xsi_param>
				<xsi_param sid="polygoneNodeCounts">4 4 4 4 4 4 </xsi_param>
				<xsi_param sid="vertexIndices">0 2 3 1 0 1 5 4 0 4 6 2 1 3 7 5 2 6 7 3 4 5 7 6 </xsi_param>
				<xsi_param sid="XSINormal">0 1 2 3 4 5 6 7 8 9 10 11 12 13 14 15 16 17 18 19 20 21 22 23 </xsi_param>
				<xsi_param sid="Texture_Projection">0 1 2 3 4 5 6 7 8 9 10 11 12 13 14 15 16 17 18 19 20 21 22 23</xsi_param>
			</XSI_PolygonList>
			<XSI_PolygonList>
				<xsi_param sid="Attributes"> </xsi_param>
				<xsi_param sid="Material">"" </xsi_param>
				<xsi_param sid="NbPolynodes">0 </xsi_param>
				<xsi_param sid="NbPolygons">0 </xsi_param>
				<xsi_param sid="polygoneNodeCounts">3 </xsi_param>
				<xsi_param sid="vertexIndices">1 2 0 </xsi_param>
				<xsi_param sid="XSINormal">2 1 0 </xsi_param>
				<xsi_param sid="Texture_Projection">2 1 0</xsi_param>
			</XSI_PolygonList>
			<XSI_PolygonList>
				<xsi_param sid="Attributes"> </xsi_param>
				<xsi_param sid="Material">"" </xsi_param>
				<xsi_param sid="NbPolynodes">0 </xsi_param>
				<xsi_param sid="NbPolygons">0 </xsi_param>
				<xsi_param sid="polygoneNodeCounts">4 4 4 4 4 4 </xsi_param>
				<xsi_param sid="vertexIndices">0 2 3 1 0 1 5 4 0 4 6 2 1 3 7 5 2 6 7 3 4 5 7 6 </xsi_param>
				<xsi_param sid="XSINormal">0 1 2 3 4 5 6 7 8 9 10 11 12 13 14 15 16 17 18 19 20 21 22 23</xsi_param>
			</XSI_PolygonList>
		</technique>
	</extra>
</COLLADA>
