<?xml version="1.0" encoding="utf-8"?>
<COLLADA xmlns="http://www.collada.org/2005/11/COLLADASchema" version="1.4.1">
	<asset>
		<contributor>
			<authoring_tool>Softimage|XSI Softimage Advanced version 7.5.191.0</authoring_tool>
		</contributor>
		<created>2010-02-04T11:51:17Z</created>
		<modified>2010-02-04T11:51:17Z</modified>
		<revision>1.4.1</revision>
		<unit meter="0.1" name="decimetre"></unit>
		<up_axis>Y_UP</up_axis>
	</asset>
	<library_cameras>
		<camera id="cameras_0">
			<optics>
				<technique_common>
					<perspective>
						<yfov>26.991501</yfov>
						<aspect_ratio>1.333333</aspect_ratio>
						<znear>0.010000</znear>
						<zfar>10000.000000</zfar>
					</perspective>
				</technique_common>
			</optics>
		</camera>
	</library_cameras>
	<library_effects>
		<effect id="Material-road_features_fx">
			<profile_COMMON>
				<technique sid="default">
					<phong>
						<emission>
							<color sid="emission">0.000000 0.000000 0.000000 1.000000</color>
						</emission>
						<ambient>
							<color sid="ambient">0.300000 0.300000 0.300000 0.000000</color>
						</ambient>
						<diffuse></diffuse>
						<specular>
							<color sid="specular">0.200000 0.200000 0.200000 1.000000</color>
						</specular>
						<shininess>
							<float sid="shininess">50.000000</float>
						</shininess>
						<reflective>
							<color sid="reflective">0.000000 0.000000 0.000000 0.000000</color>
						</reflective>
						<reflectivity>
							<float sid="reflectivity">1.000000</float>
						</reflectivity>
						<transparent opaque="RGB_ZERO">
							<color sid="transparent">0.000000 0.000000 0.000000 0.000000</color>
						</transparent>
						<transparency>
							<float sid="transparency">1.000000</float>
						</transparency>
						<index_of_refraction>
							<float sid="index_of_refraction">1.000000</float>
						</index_of_refraction>
					</phong>
				</technique>
			</profile_COMMON>
		</effect>
	</library_effects>
	<library_materials>
		<material id="Material-road_features">
			<instance_effect url="#Material-road_features_fx"></instance_effect>
		</material>
	</library_materials>
	<library_geometries>
		<geometry id="geometries_0">
			<mesh>
				<source id="geometries_0-Pos">
					<float_array id="geometries_0-Pos-array" count="9">
						-4.000000 -4.000000 -4.000000 
						4.000000 -4.000000 4.000000 
						-4.000000 -4.000000 4.000000
					</float_array>
					<technique_common>
						<accessor source="#geometries_0-Pos-array" count="3" stride="3">
							<param name="X" type="float"/>
							<param name="Y" type="float"/>
							<param name="Z" type="float"/>
						</accessor>
					</technique_common>
				</source>
				<source id="geometries_0-XSINormal">
					<float_array id="geometries_0-XSINormal-array" count="9">
						0.000000 -1.000000 0.000000 
						0.000000 -1.000000 0.000000 
						0.000000 -1.000000 0.000000
					</float_array>
					<technique_common>
						<accessor source="#geometries_0-XSINormal-array" count="3" stride="3">
							<param name="X" type="float"/>
							<param name="Y" type="float"/>
							<param name="Z" type="float"/>
						</accessor>
					</technique_common>
				</source>
				<vertices id="geometries_0-Vtx">
					<input semantic="POSITION" source="#geometries_0-Pos"/>
				</vertices>
				<polylist count="1" material="Material-road_features">
					<input semantic="VERTEX" source="#geometries_0-Vtx" offset="0"/>
					<input semantic="NORMAL" source="#geometries_0-XSINormal" offset="1"/>
					<vcount>
						3
					</vcount>
					<p>
						0 1 
						1 2 
						2 0
					</p>
				</polylist>
			</mesh>
		</geometry>
		<geometry id="geometries_1">
			<mesh>
				<source id="geometries_1-Pos">
					<float_array id="geometries_1-Pos-array" count="12">
						-4.095200 0.000000 -0.178000 
						4.095200 0.000000 -0.178000 
						4.095200 0.000000 0.178000 
						-4.095200 0.000000 0.178000
					</float_array>
					<technique_common>
						<accessor source="#geometries_1-Pos-array" count="4" stride="3">
							<param name="X" type="float"/>
							<param name="Y" type="float"/>
							<param name="Z" type="float"/>
						</accessor>
					</technique_common>
				</source>
				<source id="geometries_1-normals">
					<float_array id="geometries_1-normals-array" count="12">
						0.000000 1.000000 0.000000 
						0.000000 1.000000 0.000000 
						0.000000 1.000000 0.000000 
						0.000000 1.000000 0.000000
					</float_array>
					<technique_common>
						<accessor source="#geometries_1-normals-array" count="4" stride="3">
							<param name="X" type="float"/>
							<param name="Y" type="float"/>
							<param name="Z" type="float"/>
						</accessor>
					</technique_common>
				</source>
				<source id="geometries_1-XSINormal">
					<float_array id="geometries_1-XSINormal-array" count="12">
						0.000000 1.000000 0.000000 
						0.000000 1.000000 0.000000 
						0.000000 1.000000 0.000000 
						0.000000 1.000000 0.000000
					</float_array>
					<technique_common>
						<accessor source="#geometries_1-XSINormal-array" count="4" stride="3">
							<param name="X" type="float"/>
							<param name="Y" type="float"/>
							<param name="Z" type="float"/>
						</accessor>
					</technique_common>
				</source>
				<source id="geometries_1-Road_features">
					<float_array id="geometries_1-Road_features-array" count="8">
						0.000244 0.044190 
						0.000244 0.000732 
						1.000000 0.000732 
						1.000000 0.044190
					</float_array>
					<technique_common>
						<accessor source="#geometries_1-Road_features-array" count="4" stride="2">
							<param name="S" type="float"/>
							<param name="T" type="float"/>
						</accessor>
					</technique_common>
				</source>
				<vertices id="geometries_1-Vtx">
					<input semantic="POSITION" source="#geometries_1-Pos"/>
				</vertices>
				<polylist count="1" material="Material-road_features">
					<input semantic="VERTEX" source="#geometries_1-Vtx" offset="0"/>
					<input semantic="NORMAL" source="#geometries_1-normals" offset="1"/>
					<input semantic="NORMAL" source="#geometries_1-XSINormal" offset="2"/>
					<input semantic="TEXCOORD" source="#geometries_1-Road_features" offset="3"/>
					<vcount>
						4
					</vcount>
					<p>
						0 0 0 0 
						3 1 1 1 
						2 2 2 2 
						1 3 3 3
					</p>
				</polylist>
			</mesh>
		</geometry>
	</library_geometries>
	<library_visual_scenes>
		<visual_scene id="visual_scenes_0" name="untitled">
			<node id="base01">
				<translate sid="translation">0.000000 0.000000 0.000000</translate>
				<rotate sid="rotation_z">0.000000 0.000000 1.000000 0.000000</rotate>
				<rotate sid="rotation_y">0.000000 1.000000 0.000000 0.000000</rotate>
				<rotate sid="rotation_x">1.000000 0.000000 0.000000 0.000000</rotate>
				<scale sid="scale">1.000000 1.000000 1.000000</scale>
				<node id="Camera-CameraNode">
					<translate sid="translation">-6.437994 47.381645 74.389320</translate>
					<rotate sid="rotation_z">0.000000 0.000000 1.000000 -0.000000</rotate>
					<rotate sid="rotation_y">0.000000 1.000000 0.000000 -2.880000</rotate>
					<rotate sid="rotation_x">1.000000 0.000000 0.000000 -32.720001</rotate>
					<scale sid="scale">1.000000 1.000000 1.000000</scale>
					<instance_camera url="#cameras_0"/>
				</node>
				<node id="start01">
					<translate sid="translation">0.000000 0.000000 0.000000</translate>
					<rotate sid="rotation_z">0.000000 0.000000 1.000000 0.000000</rotate>
					<rotate sid="rotation_y">0.000000 1.000000 0.000000 0.000000</rotate>
					<rotate sid="rotation_x">1.000000 0.000000 0.000000 0.000000</rotate>
					<scale sid="scale">1.000000 1.000000 1.000000</scale>
					<node id="decal-1">
						<translate sid="translation">0.000000 0.000000 0.000000</translate>
						<rotate sid="rotation_z">0.000000 0.000000 1.000000 0.000000</rotate>
						<rotate sid="rotation_y">0.000000 1.000000 0.000000 0.000000</rotate>
						<rotate sid="rotation_x">1.000000 0.000000 0.000000 0.000000</rotate>
						<scale sid="scale">0.001000 0.001000 0.001000</scale>
						<instance_geometry url="#geometries_0">
							<bind_material>
								<technique_common>
									<instance_material symbol="Material-road_features" target="#Material-road_features"></instance_material>
								</technique_common>
							</bind_material>
						</instance_geometry>
					</node>
					<node id="decal200">
						<translate sid="translation">0.000000 0.000000 0.000000</translate>
						<rotate sid="rotation_z">0.000000 0.000000 1.000000 0.000000</rotate>
						<rotate sid="rotation_y">0.000000 1.000000 0.000000 0.000000</rotate>
						<rotate sid="rotation_x">1.000000 0.000000 0.000000 0.000000</rotate>
						<scale sid="scale">10.000000 10.000000 10.000000</scale>
						<instance_geometry url="#geometries_1">
							<bind_material>
								<technique_common>
									<instance_material symbol="Material-road_features" target="#Material-road_features"></instance_material>
								</technique_common>
							</bind_material>
						</instance_geometry>
					</node>
				</node>
			</node>
		</visual_scene>
	</library_visual_scenes>
	<scene>
		<instance_visual_scene url="#visual_scenes_0"/>
	</scene>
</COLLADA>
