<?xml version="1.0" encoding="utf-8"?>
<COLLADA xmlns="http://www.collada.org/2005/11/COLLADASchema" version="1.4.1">
	<asset>
		<contributor>
			<authoring_tool>Softimage|XSI Softimage Advanced version 7.5.191.0</authoring_tool>
		</contributor>
		<created>2009-11-30T15:03:56Z</created>
		<modified>2009-11-30T15:03:56Z</modified>
		<revision>1.4.1</revision>
		<unit meter="0.1" name="decimetre"></unit>
		<up_axis>Y_UP</up_axis>
	</asset>
	<library_effects>
		<effect id="rooftiles.SkyS05_fx">
			<profile_COMMON>
				<technique sid="default">
					<phong>
						<emission>
							<color sid="emission">0.000000 0.000000 0.000000 1.000000</color>
						</emission>
						<ambient>
							<color sid="ambient">0.300000 0.300000 0.300000 0.000000</color>
						</ambient>
						<diffuse></diffuse>
						<specular>
							<color sid="specular">1.000000 1.000000 1.000000 0.000000</color>
						</specular>
						<shininess>
							<float sid="shininess">50.000000</float>
						</shininess>
						<reflective>
							<color sid="reflective">0.000000 0.000000 0.000000 0.000000</color>
						</reflective>
						<reflectivity>
							<float sid="reflectivity">1.000000</float>
						</reflectivity>
						<transparent opaque="RGB_ZERO">
							<color sid="transparent">0.000000 0.000000 0.000000 0.000000</color>
						</transparent>
						<transparency>
							<float sid="transparency">1.000000</float>
						</transparency>
						<index_of_refraction>
							<float sid="index_of_refraction">1.000000</float>
						</index_of_refraction>
					</phong>
				</technique>
			</profile_COMMON>
		</effect>
	</library_effects>
	<library_materials>
		<material id="rooftiles.SkyS05">
			<instance_effect url="#rooftiles.SkyS05_fx"></instance_effect>
			<extra>
				<technique profile="XSI">
					<XSI_MaterialInfo></XSI_MaterialInfo>
				</technique>
			</extra>
		</material>
	</library_materials>
	<library_geometries>
		<geometry id="geometries_0">
			<mesh>
				<source id="geometries_0-Pos">
					<float_array id="geometries_0-Pos-array" count="24">
						-4.000000 -189.648056 -4.000000 
						4.000000 -189.648056 -4.000000 
						-4.000000 441.735474 -4.000000 
						4.000000 441.735474 -4.000000 
						-4.000000 -189.648056 4.000000 
						4.000000 -189.648056 4.000000 
						-4.000000 441.735474 4.000000 
						4.000000 441.735474 4.000000
					</float_array>
					<technique_common>
						<accessor source="#geometries_0-Pos-array" count="8" stride="3">
							<param name="X" type="float"/>
							<param name="Y" type="float"/>
							<param name="Z" type="float"/>
						</accessor>
					</technique_common>
				</source>
				<source id="geometries_0-XSINormal">
					<float_array id="geometries_0-XSINormal-array" count="72">
						0.000000 -0.000000 -1.000000 
						0.000000 -0.000000 -1.000000 
						0.000000 -0.000000 -1.000000 
						0.000000 -0.000000 -1.000000 
						-0.000000 -1.000000 0.000000 
						-0.000000 -1.000000 0.000000 
						-0.000000 -1.000000 0.000000 
						-0.000000 -1.000000 0.000000 
						-1.000000 0.000000 -0.000000 
						-1.000000 0.000000 -0.000000 
						-1.000000 0.000000 -0.000000 
						-1.000000 0.000000 -0.000000 
						1.000000 0.000000 0.000000 
						1.000000 0.000000 0.000000 
						1.000000 0.000000 0.000000 
						1.000000 0.000000 0.000000 
						0.000000 1.000000 0.000000 
						0.000000 1.000000 0.000000 
						0.000000 1.000000 0.000000 
						0.000000 1.000000 0.000000 
						0.000000 0.000000 1.000000 
						0.000000 0.000000 1.000000 
						0.000000 0.000000 1.000000 
						0.000000 0.000000 1.000000
					</float_array>
					<technique_common>
						<accessor source="#geometries_0-XSINormal-array" count="24" stride="3">
							<param name="X" type="float"/>
							<param name="Y" type="float"/>
							<param name="Z" type="float"/>
						</accessor>
					</technique_common>
				</source>
				<source id="geometries_0-Texture_Projection">
					<float_array id="geometries_0-Texture_Projection-array" count="48">
						0.862555 -0.712199 
						0.862555 1.565350 
						0.137445 1.565350 
						0.137445 -0.712199 
						0.137445 -0.712199 
						0.862555 -0.712199 
						0.862555 1.565350 
						0.137445 1.565350 
						0.137445 -0.712199 
						0.862555 -0.712199 
						0.862555 1.565350 
						0.137445 1.565350 
						0.862555 -0.712199 
						0.862555 1.565350 
						0.137445 1.565350 
						0.137445 -0.712199 
						0.137445 1.565350 
						0.137445 -0.712199 
						0.862555 -0.712199 
						0.862555 1.565350 
						0.137445 -0.712199 
						0.862555 -0.712199 
						0.862555 1.565350 
						0.137445 1.565350
					</float_array>
					<technique_common>
						<accessor source="#geometries_0-Texture_Projection-array" count="24" stride="2">
							<param name="S" type="float"/>
							<param name="T" type="float"/>
						</accessor>
					</technique_common>
				</source>
				<vertices id="geometries_0-Vtx">
					<input semantic="POSITION" source="#geometries_0-Pos"/>
				</vertices>
				<triangles count="12" material="rooftiles.SkyS05">
					<input semantic="VERTEX" source="#geometries_0-Vtx" offset="0"/>
					<input semantic="NORMAL" source="#geometries_0-XSINormal" offset="1"/>
					<input semantic="TEXCOORD" source="#geometries_0-Texture_Projection" offset="2"/>
					<p>
						0 0 0 
						2 1 1 
						3 2 2 
						0 0 0 
						3 2 2 
						1 3 3 
						0 4 4 
						1 5 5 
						5 6 6 
						0 4 4 
						5 6 6 
						4 7 7 
						0 8 8 
						4 9 9 
						6 10 10 
						0 8 8 
						6 10 10 
						2 11 11 
						1 12 12 
						3 13 13 
						7 14 14 
						1 12 12 
						7 14 14 
						5 15 15 
						2 16 16 
						6 17 17 
						7 18 18 
						2 16 16 
						7 18 18 
						3 19 19 
						4 20 20 
						5 21 21 
						7 22 22 
						4 20 20 
						7 22 22 
						6 23 23
					</p>
				</triangles>
			</mesh>
			<extra>
				<technique profile="XSI">
					<XSI_VertexList>
						<xsi_param sid="Attributes"> </xsi_param>
						<xsi_param sid="nbAttributes">8 </xsi_param>
						<xsi_param sid="position">0 1 2 3 4 5 6 7</xsi_param>
					</XSI_VertexList>
				</technique>
			</extra>
		</geometry>
	</library_geometries>
	<library_visual_scenes>
		<visual_scene id="visual_scenes_0" name="untitled">
			<node id="SkyS_05">
				<translate sid="translation">-142.183975 188.860428 -55.096931</translate>
				<rotate sid="rotation_z">0.000000 0.000000 1.000000 0.000000</rotate>
				<rotate sid="rotation_y">0.000000 1.000000 0.000000 -1.104254</rotate>
				<rotate sid="rotation_x">1.000000 0.000000 0.000000 0.000000</rotate>
				<scale sid="scale">12.447948 1.000000 15.308666</scale>
				<instance_geometry url="#geometries_0">
					<bind_material>
						<technique_common>
							<instance_material symbol="rooftiles.SkyS05" target="#rooftiles.SkyS05"></instance_material>
						</technique_common>
					</bind_material>
				</instance_geometry>
				<extra>
					<technique profile="XSI">
						<SI_Visibility>
							<xsi_param sid="visibility">TRUE</xsi_param>
						</SI_Visibility>
						<XSI_Transform>
							<xsi_param sid="rotorder">"XYZ" </xsi_param>
							<xsi_param sid="siscaling">TRUE</xsi_param>
							<XSI_Limit>
								<xsi_param sid="parameter">"posx" </xsi_param>
								<xsi_param sid="minactive">FALSE </xsi_param>
								<xsi_param sid="minlimit">0.000000 </xsi_param>
								<xsi_param sid="maxactive">FALSE </xsi_param>
								<xsi_param sid="maxlimit">0.000000</xsi_param>
							</XSI_Limit>
							<XSI_Limit>
								<xsi_param sid="parameter">"posy" </xsi_param>
								<xsi_param sid="minactive">FALSE </xsi_param>
								<xsi_param sid="minlimit">0.000000 </xsi_param>
								<xsi_param sid="maxactive">FALSE </xsi_param>
								<xsi_param sid="maxlimit">0.000000</xsi_param>
							</XSI_Limit>
							<XSI_Limit>
								<xsi_param sid="parameter">"posz" </xsi_param>
								<xsi_param sid="minactive">FALSE </xsi_param>
								<xsi_param sid="minlimit">0.000000 </xsi_param>
								<xsi_param sid="maxactive">FALSE </xsi_param>
								<xsi_param sid="maxlimit">0.000000</xsi_param>
							</XSI_Limit>
							<XSI_Limit>
								<xsi_param sid="parameter">"rotx" </xsi_param>
								<xsi_param sid="minactive">FALSE </xsi_param>
								<xsi_param sid="minlimit">0.000000 </xsi_param>
								<xsi_param sid="maxactive">FALSE </xsi_param>
								<xsi_param sid="maxlimit">0.000000</xsi_param>
							</XSI_Limit>
							<XSI_Limit>
								<xsi_param sid="parameter">"roty" </xsi_param>
								<xsi_param sid="minactive">FALSE </xsi_param>
								<xsi_param sid="minlimit">0.000000 </xsi_param>
								<xsi_param sid="maxactive">FALSE </xsi_param>
								<xsi_param sid="maxlimit">0.000000</xsi_param>
							</XSI_Limit>
							<XSI_Limit>
								<xsi_param sid="parameter">"rotz" </xsi_param>
								<xsi_param sid="minactive">FALSE </xsi_param>
								<xsi_param sid="minlimit">0.000000 </xsi_param>
								<xsi_param sid="maxactive">FALSE </xsi_param>
								<xsi_param sid="maxlimit">0.000000</xsi_param>
							</XSI_Limit>
						</XSI_Transform>
						<SI_GlobalMaterial>
							<xsi_param sid="reference">"rooftiles.SkyS05" </xsi_param>
							<xsi_param sid="propagation">"NODE"</xsi_param>
						</SI_GlobalMaterial>
					</technique>
				</extra>
			</node>
		</visual_scene>
	</library_visual_scenes>
	<scene>
		<instance_visual_scene url="#visual_scenes_0"/>
	</scene>
	<extra>
		<technique profile="XSI">
			<SI_Scene>
				<xsi_param sid="timing">"SECONDS" </xsi_param>
				<xsi_param sid="start">1.000000 </xsi_param>
				<xsi_param sid="end">100.000000 </xsi_param>
				<xsi_param sid="frameRate">29.970030</xsi_param>
			</SI_Scene>
			<SI_Angle>
				<xsi_param sid="type">0</xsi_param>
			</SI_Angle>
			<SI_Ambience>
				<xsi_param sid="red">0.000000 </xsi_param>
				<xsi_param sid="green">0.000000 </xsi_param>
				<xsi_param sid="blue">0.000000</xsi_param>
			</SI_Ambience>
			<SI_CoordinateSystem>
				<xsi_param sid="handRotation">1 </xsi_param>
				<xsi_param sid="uAxis">0 </xsi_param>
				<xsi_param sid="vAxis">1 </xsi_param>
				<xsi_param sid="xAxis">0 </xsi_param>
				<xsi_param sid="yAxis">2 </xsi_param>
				<xsi_param sid="zAxis">5</xsi_param>
			</SI_CoordinateSystem>
			<XSI_TriangleList>
				<xsi_param sid="Attributes"> </xsi_param>
				<xsi_param sid="Material">"" </xsi_param>
				<xsi_param sid="NbTriangles">0 </xsi_param>
				<xsi_param sid="vertexIndices">0 2 3 0 3 1 0 1 5 0 5 4 0 4 6 0 6 2 1 3 7 1 7 5 2 6 7 2 7 3 4 5 7 4 7 6 </xsi_param>
				<xsi_param sid="XSINormal">0 1 2 0 2 3 4 5 6 4 6 7 8 9 10 8 10 11 12 13 14 12 14 15 16 17 18 16 18 19 20 21 22 20 22 23 </xsi_param>
				<xsi_param sid="Texture_Projection">0 1 2 0 2 3 4 5 6 4 6 7 8 9 10 8 10 11 12 13 14 12 14 15 16 17 18 16 18 19 20 21 22 20 22 23</xsi_param>
			</XSI_TriangleList>
		</technique>
	</extra>
</COLLADA>
