<?xml version="1.0" encoding="utf-8"?>
<COLLADA xmlns="http://www.collada.org/2005/11/COLLADASchema" version="1.4.1">
	<asset>
		<contributor>
			<authoring_tool>Autodesk Softimage version 8.0.201.0 - Crosswalk 4.0</authoring_tool>
		</contributor>
		<created>2010-03-02T13:57:04Z</created>
		<modified>2010-03-02T13:57:04Z</modified>
		<revision>1.4.1</revision>
		<unit meter="0.1" name="decimetre"></unit>
		<up_axis>Y_UP</up_axis>
	</asset>
	<library_cameras>
		<camera id="cameras_0" name="cameras_0">
			<optics>
				<technique_common>
					<perspective>
						<xfov>53.638000</xfov>
						<aspect_ratio>1.333333</aspect_ratio>
						<znear>0.100000</znear>
						<zfar>32768.000000</zfar>
					</perspective>
				</technique_common>
			</optics>
		</camera>
	</library_cameras>
	<library_effects>
		<effect id="Street_Light_fx" name="Street_Light_fx">
			<profile_COMMON>
				<technique sid="default">
					<phong>
						<emission>
							<color sid="emission">0.000000 0.000000 0.000000 0.000000</color>
						</emission>
						<ambient>
							<color sid="ambient">0.300000 0.300000 0.300000 0.000000</color>
						</ambient>
						<diffuse>
							<color sid="diffuse">0.700000 0.700000 0.700000 0.000000</color>
						</diffuse>
						<specular>
							<color sid="specular">1.000000 1.000000 1.000000 0.000000</color>
						</specular>
						<shininess>
							<float sid="shininess">50.000000</float>
						</shininess>
						<reflective>
							<color sid="reflective">0.000000 0.000000 0.000000 0.000000</color>
						</reflective>
						<reflectivity>
							<float sid="reflectivity">1.000000</float>
						</reflectivity>
						<transparent opaque="RGB_ZERO">
							<color sid="transparent">0.000000 0.000000 0.000000 0.000000</color>
						</transparent>
						<transparency>
							<float sid="transparency">1.000000</float>
						</transparency>
						<index_of_refraction>
							<float sid="index_of_refraction">1.000000</float>
						</index_of_refraction>
					</phong>
				</technique>
			</profile_COMMON>
		</effect>
		<effect id="Street_LightLOD_fx" name="Street_LightLOD_fx">
			<profile_COMMON>
				<technique sid="default">
					<phong>
						<emission>
							<color sid="emission">0.000000 0.000000 0.000000 0.000000</color>
						</emission>
						<ambient>
							<color sid="ambient">0.300000 0.300000 0.300000 0.000000</color>
						</ambient>
						<diffuse>
							<color sid="diffuse">0.700000 0.700000 0.700000 0.000000</color>
						</diffuse>
						<specular>
							<color sid="specular">1.000000 1.000000 1.000000 0.000000</color>
						</specular>
						<shininess>
							<float sid="shininess">50.000000</float>
						</shininess>
						<reflective>
							<color sid="reflective">0.000000 0.000000 0.000000 0.000000</color>
						</reflective>
						<reflectivity>
							<float sid="reflectivity">1.000000</float>
						</reflectivity>
						<transparent opaque="RGB_ZERO">
							<color sid="transparent">0.000000 0.000000 0.000000 0.000000</color>
						</transparent>
						<transparency>
							<float sid="transparency">1.000000</float>
						</transparency>
						<index_of_refraction>
							<float sid="index_of_refraction">1.000000</float>
						</index_of_refraction>
					</phong>
				</technique>
			</profile_COMMON>
		</effect>
	</library_effects>
	<library_materials>
		<material id="Street_Light" name="Street_Light">
			<instance_effect url="#Street_Light_fx"></instance_effect>
		</material>
		<material id="Street_LightLOD" name="Street_LightLOD">
			<instance_effect url="#Street_LightLOD_fx"></instance_effect>
		</material>
	</library_materials>
	<library_geometries>
		<geometry id="geometries_0" name="geometries_0">
			<mesh>
				<source id="geometries_0-Pos">
					<float_array id="geometries_0-Pos-array" count="90">
						-0.707607 42.470612 10.118860 
						0.695273 42.470612 10.118860 
						-0.707607 43.664799 10.118860 
						0.695273 43.664799 10.118860 
						-0.707607 42.470612 13.299589 
						0.695273 42.470612 13.299589 
						-0.707607 43.664799 13.299589 
						0.695273 43.664799 13.299589 
						-0.283702 38.619995 0.031654 
						0.283702 38.619995 0.031654 
						-0.283702 43.205498 10.128076 
						0.283702 43.205498 10.128076 
						-0.283702 37.141483 0.911979 
						0.283702 37.141483 0.911979 
						-0.283702 42.602554 10.133280 
						0.283702 42.602554 10.133280 
						0.000000 -0.006525 0.000000 
						0.000000 38.572887 0.000000 
						-1.148533 -0.006525 -0.000000 
						-1.148533 38.572887 -0.000000 
						-0.574266 -0.006525 0.994659 
						-0.574266 38.572887 0.994659 
						0.574266 -0.006525 0.994659 
						0.574266 38.572887 0.994659 
						1.148533 -0.006525 0.000000 
						1.148533 38.572887 0.000000 
						0.574266 -0.006525 -0.994659 
						0.574266 38.572887 -0.994659 
						-0.574266 -0.006525 -0.994659 
						-0.574266 38.572887 -0.994659
					</float_array>
					<technique_common>
						<accessor source="#geometries_0-Pos-array" count="30" stride="3">
							<param name="X" type="float"/>
							<param name="Y" type="float"/>
							<param name="Z" type="float"/>
						</accessor>
					</technique_common>
				</source>
				<source id="geometries_0-XSINormal">
					<float_array id="geometries_0-XSINormal-array" count="324">
						0.000000 -0.000000 -1.000000 
						0.000000 -0.000000 -1.000000 
						0.000000 -0.000000 -1.000000 
						0.000000 -0.000000 -1.000000 
						-0.000000 -1.000000 0.000000 
						-0.000000 -1.000000 0.000000 
						-0.000000 -1.000000 0.000000 
						-0.000000 -1.000000 0.000000 
						-1.000000 0.000000 -0.000000 
						-1.000000 0.000000 -0.000000 
						-1.000000 0.000000 -0.000000 
						-1.000000 0.000000 -0.000000 
						1.000000 0.000000 0.000000 
						1.000000 0.000000 0.000000 
						1.000000 0.000000 0.000000 
						1.000000 0.000000 0.000000 
						0.000000 1.000000 0.000000 
						0.000000 1.000000 0.000000 
						0.000000 1.000000 0.000000 
						0.000000 1.000000 0.000000 
						0.000000 0.000000 1.000000 
						0.000000 0.000000 1.000000 
						0.000000 0.000000 1.000000 
						0.000000 0.000000 1.000000 
						0.000000 0.910495 -0.413520 
						0.000000 0.910495 -0.413520 
						0.000000 0.910495 -0.413520 
						0.000000 0.910495 -0.413520 
						0.000000 -0.511595 -0.859227 
						0.000000 -0.511595 -0.859227 
						0.000000 -0.511595 -0.859227 
						0.000000 -0.511595 -0.859227 
						-1.000000 -0.000000 -0.000000 
						-1.000000 -0.000000 -0.000000 
						-1.000000 -0.000000 -0.000000 
						-1.000000 -0.000000 -0.000000 
						1.000000 0.000000 0.000000 
						1.000000 0.000000 0.000000 
						1.000000 0.000000 0.000000 
						1.000000 0.000000 0.000000 
						0.000000 0.008631 0.999963 
						0.000000 -0.491439 0.870912 
						0.000000 -0.491439 0.870912 
						0.000000 0.008631 0.999963 
						0.000000 -0.860431 0.509567 
						0.000000 -0.860431 0.509567 
						0.000000 -0.491439 0.870912 
						0.000000 -0.491439 0.870912 
						0.000000 -1.000000 0.000000 
						0.000000 -1.000000 0.000000 
						0.000000 -1.000000 0.000000 
						-0.866025 0.000000 0.500000 
						-0.500000 0.000000 0.866025 
						-0.500000 0.000000 0.866025 
						-0.866025 0.000000 0.500000 
						0.000000 1.000000 0.000000 
						0.000000 1.000000 0.000000 
						0.000000 1.000000 0.000000 
						0.000000 -1.000000 0.000000 
						0.000000 -1.000000 0.000000 
						0.000000 -1.000000 0.000000 
						-0.500000 0.000000 0.866025 
						-0.000000 0.000000 1.000000 
						-0.000000 0.000000 1.000000 
						-0.500000 0.000000 0.866025 
						0.000000 1.000000 0.000000 
						0.000000 1.000000 0.000000 
						0.000000 1.000000 0.000000 
						0.000000 -1.000000 0.000000 
						0.000000 -1.000000 0.000000 
						0.000000 -1.000000 0.000000 
						0.866025 0.000000 0.500000 
						0.866025 0.000000 0.500000 
						0.866025 0.000000 0.500000 
						0.866025 0.000000 0.500000 
						0.000000 1.000000 0.000000 
						0.000000 1.000000 0.000000 
						0.000000 1.000000 0.000000 
						0.000000 -1.000000 0.000000 
						0.000000 -1.000000 0.000000 
						0.000000 -1.000000 0.000000 
						0.866025 0.000000 -0.500000 
						0.500000 0.000000 -0.866025 
						0.500000 0.000000 -0.866025 
						0.866025 0.000000 -0.500000 
						0.000000 1.000000 0.000000 
						0.000000 1.000000 0.000000 
						0.000000 1.000000 0.000000 
						0.000000 -1.000000 0.000000 
						0.000000 -1.000000 0.000000 
						0.000000 -1.000000 0.000000 
						0.500000 0.000000 -0.866025 
						0.000000 0.000000 -1.000000 
						0.000000 0.000000 -1.000000 
						0.500000 0.000000 -0.866025 
						0.000000 1.000000 0.000000 
						0.000000 1.000000 0.000000 
						0.000000 1.000000 0.000000 
						0.000000 -1.000000 0.000000 
						0.000000 -1.000000 0.000000 
						0.000000 -1.000000 0.000000 
						-0.866025 0.000000 -0.500000 
						-0.866025 0.000000 -0.500000 
						-0.866025 0.000000 -0.500000 
						-0.866025 0.000000 -0.500000 
						0.000000 1.000000 0.000000 
						0.000000 1.000000 0.000000 
						0.000000 1.000000 0.000000
					</float_array>
					<technique_common>
						<accessor source="#geometries_0-XSINormal-array" count="108" stride="3">
							<param name="X" type="float"/>
							<param name="Y" type="float"/>
							<param name="Z" type="float"/>
						</accessor>
					</technique_common>
				</source>
				<vertices id="geometries_0-Vtx">
					<input semantic="POSITION" source="#geometries_0-Pos"/>
				</vertices>
				<polylist count="30" material="Street_Light">
					<input semantic="VERTEX" source="#geometries_0-Vtx" offset="0"/>
					<input semantic="NORMAL" source="#geometries_0-XSINormal" offset="1"/>
					<vcount>
						4 4 4 4 
						4 4 4 4 
						4 4 4 4 
						3 4 3 3 
						4 3 3 4 
						3 3 4 3 
						3 4 3 3 
						4 3
					</vcount>
					<p>
						0 0 
						2 1 
						3 2 
						1 3 
						0 4 
						1 5 
						5 6 
						4 7 
						0 8 
						4 9 
						6 10 
						2 11 
						1 12 
						3 13 
						7 14 
						5 15 
						2 16 
						6 17 
						7 18 
						3 19 
						4 20 
						5 21 
						7 22 
						6 23 
						8 24 
						10 25 
						11 26 
						9 27 
						8 28 
						9 29 
						13 30 
						12 31 
						8 32 
						12 33 
						14 34 
						10 35 
						9 36 
						11 37 
						15 38 
						13 39 
						10 40 
						14 41 
						15 42 
						11 43 
						12 44 
						13 45 
						15 46 
						14 47 
						20 48 
						18 49 
						16 50 
						18 51 
						20 52 
						21 53 
						19 54 
						19 55 
						21 56 
						17 57 
						22 58 
						20 59 
						16 60 
						20 61 
						22 62 
						23 63 
						21 64 
						21 65 
						23 66 
						17 67 
						24 68 
						22 69 
						16 70 
						22 71 
						24 72 
						25 73 
						23 74 
						23 75 
						25 76 
						17 77 
						26 78 
						24 79 
						16 80 
						24 81 
						26 82 
						27 83 
						25 84 
						25 85 
						27 86 
						17 87 
						28 88 
						26 89 
						16 90 
						26 91 
						28 92 
						29 93 
						27 94 
						27 95 
						29 96 
						17 97 
						18 98 
						28 99 
						16 100 
						28 101 
						18 102 
						19 103 
						29 104 
						29 105 
						19 106 
						17 107
					</p>
				</polylist>
			</mesh>
		</geometry>
		<geometry id="geometries_1" name="geometries_1">
			<mesh>
				<source id="geometries_1-Pos">
					<float_array id="geometries_1-Pos-array" count="273">
						0.000000 0.078096 0.000000 
						0.000000 38.549843 0.038041 
						-0.806074 0.078096 -0.296110 
						-0.494257 38.549843 -0.166687 
						-0.806074 0.078096 0.371664 
						-0.806074 3.033152 0.371664 
						-0.333887 0.078096 0.843851 
						-0.333887 3.033152 0.843851 
						0.333887 0.078096 0.843851 
						0.333887 3.033152 0.843851 
						0.806074 0.078096 0.371664 
						0.806074 3.033152 0.371664 
						0.806074 0.078096 -0.296110 
						0.806074 3.033152 -0.296110 
						0.333887 0.078096 -0.768297 
						0.333887 3.033152 -0.768297 
						-0.333887 0.078096 -0.768297 
						-0.333887 3.033152 -0.768297 
						-0.806074 3.033152 -0.296110 
						-0.494257 3.033152 0.242505 
						-0.204728 3.033152 0.532034 
						0.204728 3.033152 0.532034 
						0.494257 3.033152 0.242505 
						0.494257 3.033152 -0.166951 
						0.204728 3.033152 -0.456480 
						-0.204728 3.033152 -0.456480 
						-0.494257 3.033152 -0.166951 
						-0.494257 37.089985 0.242769 
						-0.721963 42.629852 12.696285 
						0.204728 37.089985 0.532298 
						0.494257 37.089985 0.242769 
						0.494257 37.089985 -0.166687 
						0.204728 37.089985 -0.456216 
						-0.204728 37.089985 -0.456216 
						-0.494257 37.089985 -0.166687 
						-0.494257 38.549843 0.242769 
						-0.204728 38.549843 0.532298 
						0.204728 38.549843 0.532298 
						0.494257 38.549843 0.242769 
						0.494257 38.549843 -0.166687 
						0.204728 38.549843 -0.456216 
						-0.204728 38.549843 -0.456216 
						-0.204728 37.089985 0.532298 
						0.204728 42.740364 10.187888 
						-0.204728 43.190624 10.187888 
						0.204728 43.190624 10.187888 
						-0.204728 42.740364 10.187888 
						0.330117 42.403408 11.359769 
						-0.525958 43.424561 10.576645 
						0.521082 43.422207 10.592725 
						-0.721963 42.629852 10.576645 
						0.711196 42.628609 12.712365 
						-0.525958 43.424561 12.696285 
						0.521082 43.422207 12.712365 
						0.680669 43.110817 12.711946 
						0.682826 43.110817 10.592300 
						-0.690347 43.111870 12.696716 
						-0.688190 43.111870 10.577070 
						0.014769 43.601425 12.724238 
						0.008980 43.111176 13.297986 
						0.015185 42.629730 13.297956 
						0.005177 42.629734 10.604580 
						0.001627 43.601425 10.604604 
						0.473421 43.109863 13.120054 
						0.469867 42.629616 13.128965 
						-0.443665 43.111427 13.119122 
						-0.443542 42.629738 13.114085 
						-0.588482 42.629749 12.585064 
						0.711196 42.628609 10.592725 
						-0.588482 42.629745 10.819462 
						0.589097 42.629601 12.601143 
						0.014146 42.629730 13.090909 
						0.005810 42.629730 10.847401 
						0.410257 42.629620 12.948159 
						-0.386148 42.629734 12.933080 
						0.589097 42.629601 10.835541 
						-0.588482 42.494091 12.585064 
						-0.588482 42.494087 10.819462 
						0.589097 42.493572 12.601143 
						0.014146 42.494026 13.090909 
						0.005810 42.494034 10.847401 
						0.410257 42.493637 12.948159 
						-0.386148 42.494041 12.933080 
						0.589097 42.493568 10.835541 
						-0.328052 42.403732 12.158645 
						-0.328052 42.403728 11.343690 
						0.330117 42.403416 12.174724 
						0.008733 42.403717 12.407184 
						0.004885 42.403721 11.371640 
						0.247569 42.403454 12.334898 
						-0.234660 42.403713 12.319280
					</float_array>
					<technique_common>
						<accessor source="#geometries_1-Pos-array" count="91" stride="3">
							<param name="X" type="float"/>
							<param name="Y" type="float"/>
							<param name="Z" type="float"/>
						</accessor>
					</technique_common>
				</source>
				<source id="geometries_1-XSINormal">
					<float_array id="geometries_1-XSINormal-array" count="1140">
						0.000000 -1.000000 0.000000 
						0.000000 -1.000000 0.000000 
						0.000000 -1.000000 0.000000 
						-0.923880 0.000000 -0.382683 
						-0.923880 0.000000 0.382683 
						-0.923880 0.000000 0.382683 
						-0.923880 0.000000 -0.382683 
						0.000000 1.000000 0.000000 
						0.000000 1.000000 0.000000 
						0.000000 1.000000 0.000000 
						0.000000 -1.000000 0.000000 
						0.000000 -1.000000 0.000000 
						0.000000 -1.000000 0.000000 
						-0.923880 0.000000 0.382683 
						-0.382683 0.000000 0.923880 
						-0.382683 0.000000 0.923880 
						-0.923880 0.000000 0.382683 
						0.000000 1.000000 0.000000 
						-0.000000 0.989036 -0.147673 
						0.000000 1.000000 0.000000 
						0.000000 -1.000000 0.000000 
						0.000000 -1.000000 0.000000 
						0.000000 -1.000000 0.000000 
						-0.382683 0.000000 0.923880 
						0.382683 0.000000 0.923880 
						0.382683 0.000000 0.923880 
						-0.382683 0.000000 0.923880 
						-0.000000 0.989036 -0.147673 
						-0.000000 0.989036 -0.147673 
						0.000000 1.000000 0.000000 
						0.000000 -1.000000 0.000000 
						0.000000 -1.000000 0.000000 
						0.000000 -1.000000 0.000000 
						0.382683 0.000000 0.923880 
						0.923880 0.000000 0.382683 
						0.923880 0.000000 0.382683 
						0.382683 0.000000 0.923880 
						-0.000000 0.989036 -0.147673 
						0.000000 1.000000 0.000000 
						0.000000 1.000000 0.000000 
						0.000000 -1.000000 0.000000 
						0.000000 -1.000000 0.000000 
						0.000000 -1.000000 0.000000 
						0.923880 0.000000 0.382683 
						0.923880 0.000000 -0.382683 
						0.923880 0.000000 -0.382683 
						0.923880 0.000000 0.382683 
						0.000000 1.000000 0.000000 
						0.000000 1.000000 0.000000 
						0.000000 1.000000 0.000000 
						0.000000 -1.000000 0.000000 
						0.000000 -1.000000 0.000000 
						0.000000 -1.000000 0.000000 
						0.923880 0.000000 -0.382683 
						0.382683 0.000000 -0.923880 
						0.382683 0.000000 -0.923880 
						0.923880 0.000000 -0.382683 
						0.000000 1.000000 0.000000 
						0.000000 1.000000 0.000000 
						0.000000 1.000000 0.000000 
						0.000000 -1.000000 0.000000 
						0.000000 -1.000000 0.000000 
						0.000000 -1.000000 0.000000 
						0.382683 0.000000 -0.923880 
						-0.382683 0.000000 -0.923880 
						-0.382683 0.000000 -0.923880 
						0.382683 0.000000 -0.923880 
						0.000000 1.000000 0.000000 
						0.000000 1.000000 0.000000 
						0.000000 1.000000 0.000000 
						0.000000 -1.000000 0.000000 
						0.000000 -1.000000 0.000000 
						0.000000 -1.000000 0.000000 
						-0.382683 0.000000 -0.923880 
						-0.923880 0.000000 -0.382683 
						-0.923880 0.000000 -0.382683 
						-0.382683 0.000000 -0.923880 
						0.000000 1.000000 0.000000 
						0.000000 1.000000 0.000000 
						0.000000 1.000000 0.000000 
						0.000000 1.000000 0.000000 
						0.000000 1.000000 0.000000 
						0.000000 1.000000 0.000000 
						0.000000 1.000000 0.000000 
						0.000000 1.000000 0.000000 
						0.000000 1.000000 0.000000 
						0.000000 1.000000 0.000000 
						0.000000 1.000000 0.000000 
						0.000000 1.000000 0.000000 
						0.000000 1.000000 0.000000 
						0.000000 1.000000 0.000000 
						0.000000 1.000000 0.000000 
						0.000000 1.000000 0.000000 
						0.000000 1.000000 0.000000 
						0.000000 1.000000 0.000000 
						0.000000 1.000000 0.000000 
						0.000000 1.000000 0.000000 
						0.000000 1.000000 0.000000 
						0.000000 1.000000 0.000000 
						0.000000 1.000000 0.000000 
						0.000000 1.000000 0.000000 
						0.000000 1.000000 0.000000 
						0.000000 1.000000 0.000000 
						0.000000 1.000000 0.000000 
						0.000000 1.000000 0.000000 
						0.000000 1.000000 0.000000 
						0.000000 1.000000 0.000000 
						0.000000 1.000000 0.000000 
						0.000000 1.000000 0.000000 
						0.000000 1.000000 0.000000 
						0.000000 1.000000 0.000000 
						0.000000 1.000000 0.000000 
						-0.923880 0.000003 -0.382683 
						-0.923880 -0.000003 0.382683 
						-0.923880 -0.000001 0.382683 
						-0.923880 0.000001 -0.382683 
						-0.923880 -0.000003 0.382683 
						-0.382683 -0.000007 0.923880 
						-0.621371 -0.222143 0.751366 
						-0.923880 -0.000001 0.382683 
						-0.382683 -0.000007 0.923880 
						0.382683 -0.000007 0.923880 
						0.621371 -0.222143 0.751366 
						-0.621371 -0.222143 0.751366 
						0.382683 -0.000007 0.923880 
						0.923880 -0.000003 0.382683 
						0.923880 -0.000001 0.382683 
						0.621371 -0.222143 0.751366 
						0.923880 -0.000003 0.382683 
						0.923880 0.000003 -0.382683 
						0.923880 0.000001 -0.382683 
						0.923880 -0.000001 0.382683 
						0.923880 0.000003 -0.382683 
						0.382683 0.000007 -0.923880 
						0.382683 0.000004 -0.923880 
						0.923880 0.000001 -0.382683 
						0.382683 0.000007 -0.923880 
						-0.382683 0.000007 -0.923880 
						-0.382683 0.000004 -0.923880 
						0.382683 0.000004 -0.923880 
						-0.382683 0.000007 -0.923880 
						-0.923880 0.000003 -0.382683 
						-0.923880 0.000001 -0.382683 
						-0.382683 0.000004 -0.923880 
						-0.923880 0.000001 -0.382683 
						-0.923880 -0.000001 0.382683 
						-0.923880 0.000000 0.382683 
						-0.923880 0.000000 -0.382683 
						-0.923880 -0.000001 0.382683 
						-0.621371 -0.222143 0.751366 
						-0.923880 0.000000 0.382683 
						-0.923880 0.000000 0.382683 
						-0.960131 0.048057 0.275390 
						-0.640706 0.009146 0.767732 
						-0.629512 0.326147 0.705225 
						-0.930555 0.256362 0.261431 
						0.621371 -0.222143 0.751366 
						0.923880 -0.000001 0.382683 
						0.923880 0.000000 0.382683 
						0.923880 0.000000 0.382683 
						0.923880 -0.000001 0.382683 
						0.923880 0.000001 -0.382683 
						0.923880 0.000000 -0.382683 
						0.923880 0.000000 0.382683 
						0.923880 0.000001 -0.382683 
						0.382683 0.000004 -0.923880 
						0.382683 0.000000 -0.923880 
						0.923880 0.000000 -0.382683 
						0.382683 0.000004 -0.923880 
						-0.382683 0.000004 -0.923880 
						-0.382683 0.000000 -0.923880 
						0.382683 0.000000 -0.923880 
						-0.382683 0.000004 -0.923880 
						-0.923880 0.000001 -0.382683 
						-0.923880 0.000000 -0.382683 
						-0.382683 0.000000 -0.923880 
						-0.621371 -0.222143 0.751366 
						0.621371 -0.222143 0.751366 
						-0.002015 -0.991018 0.133712 
						0.002205 -0.999984 -0.005171 
						0.621371 -0.222143 0.751366 
						0.923880 0.000000 0.382683 
						0.496893 0.566170 -0.657684 
						0.904728 0.010518 -0.425860 
						-0.000000 0.989036 -0.147673 
						-0.000000 0.989036 -0.147673 
						-0.585452 0.491935 -0.644396 
						0.496893 0.566170 -0.657684 
						-0.923880 0.000000 0.382683 
						-0.621371 -0.222143 0.751366 
						-0.898962 0.012617 -0.437844 
						-0.585452 0.491935 -0.644396 
						0.002205 -0.999984 -0.005171 
						0.001293 -0.991433 -0.130610 
						0.003027 -0.996131 -0.087826 
						0.904728 0.010518 -0.425860 
						0.496893 0.566170 -0.657684 
						0.880738 0.242755 -0.406657 
						0.903815 0.044211 -0.425633 
						0.496893 0.566170 -0.657684 
						0.038779 0.933946 -0.355305 
						0.599430 0.707971 -0.373445 
						-0.585452 0.491935 -0.644396 
						-0.874136 0.245162 -0.419263 
						-0.566461 0.719913 -0.401057 
						0.109271 -0.992324 -0.057899 
						0.172451 -0.984498 0.032008 
						0.056713 -0.996759 0.057055 
						0.000502 -0.998351 -0.057397 
						0.903815 0.044211 -0.425633 
						0.880738 0.242755 -0.406657 
						0.938741 0.253005 0.233993 
						0.967982 0.046533 0.246669 
						0.599430 0.707971 -0.373445 
						0.038779 0.933946 -0.355305 
						0.003865 0.938872 0.344246 
						0.638447 0.713776 0.287939 
						-0.566461 0.719913 -0.401057 
						-0.874136 0.245162 -0.419263 
						-0.930555 0.256362 0.261431 
						-0.627981 0.717571 0.301218 
						0.599430 0.707971 -0.373445 
						0.638447 0.713776 0.287939 
						0.938741 0.253005 0.233993 
						0.880738 0.242755 -0.406657 
						0.599430 0.707971 -0.373445 
						0.880738 0.242755 -0.406657 
						0.496893 0.566170 -0.657684 
						-0.897542 0.050248 -0.438056 
						-0.960131 0.048057 0.275390 
						-0.930555 0.256362 0.261431 
						-0.874136 0.245162 -0.419263 
						-0.898962 0.012617 -0.437844 
						-0.897542 0.050248 -0.438056 
						-0.874136 0.245162 -0.419263 
						-0.585452 0.491935 -0.644396 
						0.638447 0.713776 0.287939 
						0.645593 0.335169 0.686201 
						0.938741 0.253005 0.233993 
						-0.627981 0.717571 0.301218 
						-0.629512 0.326147 0.705225 
						-0.005304 0.431695 0.902004 
						0.003865 0.938872 0.344246 
						0.967982 0.046533 0.246669 
						0.938741 0.253005 0.233993 
						0.645593 0.335169 0.686201 
						0.656768 0.020724 0.753808 
						-0.107569 -0.992483 -0.058368 
						0.000502 -0.998351 -0.057397 
						-0.056423 -0.996687 0.058574 
						-0.169117 -0.985007 0.034071 
						-0.002015 -0.991018 0.133712 
						-0.004294 -0.996273 -0.086146 
						0.001293 -0.991433 -0.130610 
						0.002205 -0.999984 -0.005171 
						-0.566461 0.719913 -0.401057 
						-0.627981 0.717571 0.301218 
						0.003865 0.938872 0.344246 
						0.038779 0.933946 -0.355305 
						-0.585452 0.491935 -0.644396 
						-0.566461 0.719913 -0.401057 
						0.038779 0.933946 -0.355305 
						0.496893 0.566170 -0.657684 
						0.003865 0.938872 0.344246 
						-0.005304 0.431695 0.902004 
						0.645593 0.335169 0.686201 
						0.638447 0.713776 0.287939 
						-0.005304 0.431695 0.902004 
						-0.008934 0.001231 0.999959 
						0.656768 0.020724 0.753808 
						0.645593 0.335169 0.686201 
						-0.930555 0.256362 0.261431 
						-0.629512 0.326147 0.705225 
						-0.627981 0.717571 0.301218 
						-0.008934 0.001231 0.999959 
						-0.005304 0.431695 0.902004 
						-0.629512 0.326147 0.705225 
						-0.640706 0.009146 0.767732 
						-0.001960 -0.997801 0.066252 
						-0.056423 -0.996687 0.058574 
						0.000502 -0.998351 -0.057397 
						-0.001960 -0.997801 0.066252 
						0.000502 -0.998351 -0.057397 
						0.056713 -0.996759 0.057055 
						-0.004294 -0.996273 -0.086146 
						-0.006090 -0.999981 -0.000443 
						-0.006090 -0.999981 -0.000443 
						-0.004533 -0.999989 0.000903 
						-0.006090 -0.999981 -0.000443 
						-0.002152 -0.999998 -0.000428 
						-0.002152 -0.999998 -0.000428 
						-0.006090 -0.999981 -0.000443 
						-0.002152 -0.999998 -0.000428 
						-0.000133 -1.000000 0.000016 
						-0.000133 -1.000000 0.000016 
						-0.002152 -0.999998 -0.000428 
						-0.000133 -1.000000 0.000016 
						-0.000214 -1.000000 0.000047 
						-0.000214 -1.000000 0.000047 
						-0.000133 -1.000000 0.000016 
						-0.000214 -1.000000 0.000047 
						-0.000594 -1.000000 0.000046 
						-0.000594 -1.000000 0.000046 
						-0.000214 -1.000000 0.000047 
						-0.000594 -1.000000 0.000046 
						0.003027 -0.996131 -0.087826 
						-0.000434 -1.000000 -0.000094 
						-0.000594 -1.000000 0.000046 
						0.003027 -0.996131 -0.087826 
						0.001293 -0.991433 -0.130610 
						-0.000517 -1.000000 0.000809 
						-0.000434 -1.000000 -0.000094 
						0.001293 -0.991433 -0.130610 
						-0.004294 -0.996273 -0.086146 
						-0.004533 -0.999989 0.000903 
						-0.000517 -1.000000 0.000809 
						1.000000 0.000000 -0.000000 
						0.971828 -0.000000 0.235693 
						0.971828 -0.000000 0.235693 
						1.000000 0.000000 -0.000000 
						0.971828 -0.000000 0.235693 
						0.659694 -0.000000 0.751535 
						0.659694 -0.000000 0.751535 
						0.971828 -0.000000 0.235693 
						0.659694 -0.000000 0.751535 
						-0.014839 -0.000000 0.999890 
						-0.014839 -0.000000 0.999890 
						0.659694 -0.000000 0.751535 
						-0.014839 -0.000000 0.999890 
						-0.651735 -0.000000 0.758447 
						-0.651735 -0.000000 0.758447 
						-0.014839 -0.000000 0.999890 
						-0.651735 -0.000000 0.758447 
						-0.965533 -0.000000 0.260280 
						-0.965533 -0.000000 0.260280 
						-0.651735 -0.000000 0.758447 
						-0.965533 -0.000000 0.260280 
						-1.000000 -0.000000 0.000000 
						-1.000000 -0.000000 0.000000 
						-0.965533 -0.000000 0.260280 
						0.046961 0.000000 -0.998897 
						0.013324 0.000000 -0.999911 
						0.013324 0.000000 -0.999911 
						0.046961 0.000000 -0.998897 
						0.013324 0.000000 -0.999911 
						-0.020329 0.000000 -0.999793 
						-0.020329 0.000000 -0.999793 
						0.013324 0.000000 -0.999911 
						0.164696 -0.982498 -0.087019 
						0.257417 -0.965122 0.047713 
						0.172451 -0.984498 0.032008 
						0.109271 -0.992324 -0.057899 
						0.257417 -0.965122 0.047713 
						0.114193 -0.986908 0.113897 
						0.056713 -0.996759 0.057055 
						0.172451 -0.984498 0.032008 
						0.114193 -0.986908 0.113897 
						-0.003370 -0.991206 0.132285 
						-0.001960 -0.997801 0.066252 
						0.056713 -0.996759 0.057055 
						-0.003370 -0.991206 0.132285 
						-0.112568 -0.986745 0.116885 
						-0.056423 -0.996687 0.058574 
						-0.001960 -0.997801 0.066252 
						-0.112568 -0.986745 0.116885 
						-0.252109 -0.966364 0.050802 
						-0.169117 -0.985007 0.034071 
						-0.056423 -0.996687 0.058574 
						-0.252109 -0.966364 0.050802 
						-0.161708 -0.982929 -0.087757 
						-0.107569 -0.992483 -0.058368 
						-0.169117 -0.985007 0.034071 
						-0.161708 -0.982929 -0.087757 
						0.002507 -0.985162 -0.171608 
						0.000502 -0.998351 -0.057397 
						-0.107569 -0.992483 -0.058368 
						0.002507 -0.985162 -0.171608 
						0.164696 -0.982498 -0.087019 
						0.109271 -0.992324 -0.057899 
						0.000502 -0.998351 -0.057397
					</float_array>
					<technique_common>
						<accessor source="#geometries_1-XSINormal-array" count="380" stride="3">
							<param name="X" type="float"/>
							<param name="Y" type="float"/>
							<param name="Z" type="float"/>
						</accessor>
					</technique_common>
				</source>
				<source id="geometries_1-Texture_Projection">
					<float_array id="geometries_1-Texture_Projection-array" count="760">
						0.327933 0.619430 
						0.280561 0.733797 
						0.439620 0.740267 
						0.045408 0.017282 
						0.061652 0.017282 
						0.061652 0.089756 
						0.045408 0.089756 
						0.343146 0.733752 
						0.372193 0.663626 
						0.442319 0.733752 
						0.442300 0.572058 
						0.327933 0.619430 
						0.439620 0.740267 
						0.061652 0.017282 
						0.077896 0.017282 
						0.077896 0.089756 
						0.061652 0.089756 
						0.372193 0.663626 
						0.442319 0.634579 
						0.442319 0.733752 
						0.556667 0.619430 
						0.442300 0.572058 
						0.439620 0.740267 
						0.077896 0.017282 
						0.094139 0.017282 
						0.094139 0.089756 
						0.077896 0.089756 
						0.442319 0.634579 
						0.512445 0.663626 
						0.442319 0.733752 
						0.604039 0.733797 
						0.556667 0.619430 
						0.439620 0.740267 
						0.094139 0.017282 
						0.110383 0.017282 
						0.110383 0.089756 
						0.094139 0.089756 
						0.512445 0.663626 
						0.541492 0.733752 
						0.442319 0.733752 
						0.556667 0.848164 
						0.604039 0.733797 
						0.439620 0.740267 
						0.110383 0.017282 
						0.126627 0.017282 
						0.126627 0.089756 
						0.110383 0.089756 
						0.541492 0.733752 
						0.512445 0.803878 
						0.442319 0.733752 
						0.442300 0.895536 
						0.556667 0.848164 
						0.439620 0.740267 
						0.126627 0.017282 
						0.142871 0.017282 
						0.142871 0.089756 
						0.126627 0.089756 
						0.512445 0.803878 
						0.442319 0.832925 
						0.442319 0.733752 
						0.327933 0.848164 
						0.442300 0.895536 
						0.439620 0.740267 
						0.012920 0.017282 
						0.029164 0.017282 
						0.029164 0.089756 
						0.012920 0.089756 
						0.442319 0.832925 
						0.372193 0.803878 
						0.442319 0.733752 
						0.280561 0.733797 
						0.327933 0.848164 
						0.439620 0.740267 
						0.029164 0.017282 
						0.045408 0.017282 
						0.045408 0.089756 
						0.029164 0.089756 
						0.372193 0.803878 
						0.343146 0.733752 
						0.442319 0.733752 
						0.280561 0.733797 
						0.327933 0.619430 
						0.372174 0.663671 
						0.343127 0.733797 
						0.327933 0.619430 
						0.442300 0.572058 
						0.442300 0.634624 
						0.372174 0.663671 
						0.442300 0.572058 
						0.556667 0.619430 
						0.512426 0.663671 
						0.442300 0.634624 
						0.556667 0.619430 
						0.604039 0.733797 
						0.541473 0.733797 
						0.512426 0.663671 
						0.604039 0.733797 
						0.556667 0.848164 
						0.512426 0.803923 
						0.541473 0.733797 
						0.556667 0.848164 
						0.442300 0.895536 
						0.442300 0.832970 
						0.512426 0.803923 
						0.442300 0.895536 
						0.327933 0.848164 
						0.372174 0.803923 
						0.442300 0.832970 
						0.327933 0.848164 
						0.280561 0.733797 
						0.343127 0.733797 
						0.372174 0.803923 
						0.057554 0.090181 
						0.069438 0.090181 
						0.070404 0.925014 
						0.058575 0.925014 
						0.069438 0.090181 
						0.081322 0.090181 
						0.081708 0.925014 
						0.070404 0.925014 
						0.081322 0.090181 
						0.093205 0.090181 
						0.092819 0.925014 
						0.081708 0.925014 
						0.093205 0.090181 
						0.105089 0.090181 
						0.104123 0.925014 
						0.092819 0.925014 
						0.105089 0.090181 
						0.116973 0.090181 
						0.115953 0.925014 
						0.104123 0.925014 
						0.116973 0.090181 
						0.128856 0.090181 
						0.128416 0.925014 
						0.115953 0.925014 
						0.033787 0.090181 
						0.045671 0.090181 
						0.046111 0.925014 
						0.033347 0.925014 
						0.045671 0.090181 
						0.057554 0.090181 
						0.058575 0.925014 
						0.046111 0.925014 
						0.058575 0.925014 
						0.070404 0.925014 
						0.070404 0.960817 
						0.058575 0.960817 
						0.070404 0.925014 
						0.081708 0.925014 
						0.081708 0.960817 
						0.070404 0.960817 
						0.784675 0.474069 
						0.784660 0.428598 
						0.844826 0.428473 
						0.844881 0.470981 
						0.092819 0.925014 
						0.104123 0.925014 
						0.104123 0.960817 
						0.092819 0.960817 
						0.104123 0.925014 
						0.115953 0.925014 
						0.115953 0.960817 
						0.104123 0.960817 
						0.115953 0.925014 
						0.128416 0.925014 
						0.128416 0.960817 
						0.115953 0.960817 
						0.033347 0.925014 
						0.046111 0.925014 
						0.046111 0.960817 
						0.033347 0.960817 
						0.046111 0.925014 
						0.058575 0.925014 
						0.058575 0.960817 
						0.046111 0.960817 
						0.913874 0.018334 
						0.879022 0.018409 
						0.881002 0.969065 
						0.915855 0.968991 
						0.141072 0.878791 
						0.181338 0.962402 
						0.862350 0.961881 
						0.849931 0.936093 
						0.879022 0.074824 
						0.913874 0.074749 
						0.915855 0.986390 
						0.881002 0.986465 
						0.181338 0.962402 
						0.141072 0.878791 
						0.849931 0.936093 
						0.862350 0.961881 
						0.573195 0.612354 
						0.612361 0.533464 
						0.476582 0.539060 
						0.798478 0.855121 
						0.854717 0.855121 
						0.844750 0.914717 
						0.784520 0.917298 
						0.648723 0.616438 
						0.609672 0.542741 
						0.682286 0.542971 
						0.572256 0.616654 
						0.481884 0.543566 
						0.535969 0.546546 
						0.387974 0.171033 
						0.388273 0.375854 
						0.367513 0.416146 
						0.305954 0.174161 
						0.784520 0.026107 
						0.844750 0.023526 
						0.844750 0.302104 
						0.784520 0.299301 
						0.682286 0.542971 
						0.609672 0.542741 
						0.610779 0.147375 
						0.681278 0.147611 
						0.535969 0.546546 
						0.481884 0.543566 
						0.480134 0.148206 
						0.534961 0.151185 
						0.682286 0.542971 
						0.681278 0.147611 
						0.736170 0.144631 
						0.737920 0.539991 
						0.682286 0.542971 
						0.737920 0.539991 
						0.648723 0.616438 
						0.784675 0.754443 
						0.784675 0.474069 
						0.844881 0.470981 
						0.844881 0.757550 
						0.798478 0.816769 
						0.784675 0.754443 
						0.844881 0.757550 
						0.854717 0.816769 
						0.681278 0.147611 
						0.697209 0.068610 
						0.736170 0.144631 
						0.534961 0.151185 
						0.525936 0.069283 
						0.610356 0.035680 
						0.610779 0.147375 
						0.784520 0.299301 
						0.844750 0.302104 
						0.844630 0.340340 
						0.784645 0.340928 
						0.221976 0.167278 
						0.305954 0.174161 
						0.245888 0.412431 
						0.222275 0.372099 
						0.649663 0.612138 
						0.744224 0.535292 
						0.612361 0.533464 
						0.573195 0.612354 
						0.535969 0.546546 
						0.534961 0.151185 
						0.610779 0.147375 
						0.609672 0.542741 
						0.572256 0.616654 
						0.535969 0.546546 
						0.609672 0.542741 
						0.648723 0.616438 
						0.610779 0.147375 
						0.610356 0.035680 
						0.697209 0.068610 
						0.681278 0.147611 
						0.844794 0.384984 
						0.784659 0.384436 
						0.784645 0.340928 
						0.844630 0.340340 
						0.480134 0.148206 
						0.525936 0.069283 
						0.534961 0.151185 
						0.784659 0.384436 
						0.844794 0.384984 
						0.844826 0.428473 
						0.784660 0.428598 
						0.307305 0.434421 
						0.245888 0.412431 
						0.305954 0.174161 
						0.307305 0.434421 
						0.305954 0.174161 
						0.367513 0.416146 
						0.744224 0.535292 
						0.742877 0.139932 
						0.720143 0.160751 
						0.721265 0.490075 
						0.742877 0.139932 
						0.697541 0.062364 
						0.686523 0.096120 
						0.720143 0.160751 
						0.697541 0.062364 
						0.612519 0.031084 
						0.612457 0.069704 
						0.686523 0.096120 
						0.612519 0.031084 
						0.526967 0.065623 
						0.537800 0.099354 
						0.612457 0.069704 
						0.526967 0.065623 
						0.475235 0.143700 
						0.500234 0.164374 
						0.537800 0.099354 
						0.475235 0.143700 
						0.476582 0.539060 
						0.501356 0.493698 
						0.500234 0.164374 
						0.476582 0.539060 
						0.612361 0.533464 
						0.612325 0.488173 
						0.501356 0.493698 
						0.612361 0.533464 
						0.744224 0.535292 
						0.721265 0.490075 
						0.612325 0.488173 
						0.969827 0.543266 
						0.969827 0.833933 
						0.946456 0.833933 
						0.946455 0.543266 
						0.969827 0.833933 
						0.969830 0.880088 
						0.946467 0.880088 
						0.946456 0.833933 
						0.969830 0.880088 
						0.969849 0.932187 
						0.946534 0.932187 
						0.946467 0.880088 
						0.969849 0.932187 
						0.969850 0.985348 
						0.946537 0.985348 
						0.946534 0.932187 
						0.969850 0.016436 
						0.969853 0.065984 
						0.946545 0.065984 
						0.946537 0.016436 
						0.969853 0.065984 
						0.969853 0.378719 
						0.946544 0.378719 
						0.946545 0.065984 
						0.969853 0.378719 
						0.969850 0.463333 
						0.946535 0.463333 
						0.946544 0.378719 
						0.969850 0.463333 
						0.969827 0.543266 
						0.946455 0.543266 
						0.946535 0.463333 
						0.453160 0.041064 
						0.453809 0.484809 
						0.388273 0.375854 
						0.387974 0.171033 
						0.453809 0.484809 
						0.408833 0.572101 
						0.367513 0.416146 
						0.388273 0.375854 
						0.408833 0.572101 
						0.308985 0.608155 
						0.307305 0.434421 
						0.367513 0.416146 
						0.308985 0.608155 
						0.207971 0.568658 
						0.245888 0.412431 
						0.307305 0.434421 
						0.207971 0.568658 
						0.156814 0.481279 
						0.222275 0.372099 
						0.245888 0.412431 
						0.156814 0.481279 
						0.156166 0.037534 
						0.221976 0.167278 
						0.222275 0.372099 
						0.156166 0.037534 
						0.306058 0.044302 
						0.305954 0.174161 
						0.221976 0.167278 
						0.306058 0.044302 
						0.453160 0.041064 
						0.387974 0.171033 
						0.305954 0.174161
					</float_array>
					<technique_common>
						<accessor source="#geometries_1-Texture_Projection-array" count="380" stride="2">
							<param name="S" type="float"/>
							<param name="T" type="float"/>
						</accessor>
					</technique_common>
				</source>
				<vertices id="geometries_1-Vtx">
					<input semantic="POSITION" source="#geometries_1-Pos"/>
				</vertices>
				<polylist count="101" material="Street_Light">
					<input semantic="VERTEX" source="#geometries_1-Vtx" offset="0"/>
					<input semantic="NORMAL" source="#geometries_1-XSINormal" offset="1"/>
					<input semantic="TEXCOORD" source="#geometries_1-Texture_Projection" offset="2"/>
					<vcount>
						3 4 3 3 
						4 3 3 4 
						3 3 4 3 
						3 4 3 3 
						4 3 3 4 
						3 3 4 3 
						4 4 4 4 
						4 4 4 4 
						4 4 4 4 
						4 4 4 4 
						4 4 4 4 
						4 4 4 4 
						4 4 4 4 
						3 4 3 3 
						4 4 4 4 
						4 3 4 4 
						3 4 4 4 
						4 4 4 4 
						4 3 4 3 
						3 4 4 4 
						4 4 4 4 
						4 4 4 4 
						4 4 4 4 
						4 4 4 4 
						4 4 4 4 
						4
					</vcount>
					<p>
						4 0 0 
						2 1 1 
						0 2 2 
						2 3 3 
						4 4 4 
						5 5 5 
						18 6 6 
						3 7 7 
						35 8 8 
						1 9 9 
						6 10 10 
						4 11 11 
						0 12 12 
						4 13 13 
						6 14 14 
						7 15 15 
						5 16 16 
						35 17 17 
						36 18 18 
						1 19 19 
						8 20 20 
						6 21 21 
						0 22 22 
						6 23 23 
						8 24 24 
						9 25 25 
						7 26 26 
						36 27 27 
						37 28 28 
						1 29 29 
						10 30 30 
						8 31 31 
						0 32 32 
						8 33 33 
						10 34 34 
						11 35 35 
						9 36 36 
						37 37 37 
						38 38 38 
						1 39 39 
						12 40 40 
						10 41 41 
						0 42 42 
						10 43 43 
						12 44 44 
						13 45 45 
						11 46 46 
						38 47 47 
						39 48 48 
						1 49 49 
						14 50 50 
						12 51 51 
						0 52 52 
						12 53 53 
						14 54 54 
						15 55 55 
						13 56 56 
						39 57 57 
						40 58 58 
						1 59 59 
						16 60 60 
						14 61 61 
						0 62 62 
						14 63 63 
						16 64 64 
						17 65 65 
						15 66 66 
						40 67 67 
						41 68 68 
						1 69 69 
						2 70 70 
						16 71 71 
						0 72 72 
						16 73 73 
						2 74 74 
						18 75 75 
						17 76 76 
						41 77 77 
						3 78 78 
						1 79 79 
						18 80 80 
						5 81 81 
						19 82 82 
						26 83 83 
						5 84 84 
						7 85 85 
						20 86 86 
						19 87 87 
						7 88 88 
						9 89 89 
						21 90 90 
						20 91 91 
						9 92 92 
						11 93 93 
						22 94 94 
						21 95 95 
						11 96 96 
						13 97 97 
						23 98 98 
						22 99 99 
						13 100 100 
						15 101 101 
						24 102 102 
						23 103 103 
						15 104 104 
						17 105 105 
						25 106 106 
						24 107 107 
						17 108 108 
						18 109 109 
						26 110 110 
						25 111 111 
						26 112 112 
						19 113 113 
						27 114 114 
						34 115 115 
						19 116 116 
						20 117 117 
						42 118 118 
						27 119 119 
						20 120 120 
						21 121 121 
						29 122 122 
						42 123 123 
						21 124 124 
						22 125 125 
						30 126 126 
						29 127 127 
						22 128 128 
						23 129 129 
						31 130 130 
						30 131 131 
						23 132 132 
						24 133 133 
						32 134 134 
						31 135 135 
						24 136 136 
						25 137 137 
						33 138 138 
						32 139 139 
						25 140 140 
						26 141 141 
						34 142 142 
						33 143 143 
						34 144 144 
						27 145 145 
						35 146 146 
						3 147 147 
						27 148 148 
						42 149 149 
						36 150 150 
						35 151 151 
						28 152 152 
						66 153 153 
						65 154 154 
						56 155 155 
						29 156 156 
						30 157 157 
						38 158 158 
						37 159 159 
						30 160 160 
						31 161 161 
						39 162 162 
						38 163 163 
						31 164 164 
						32 165 165 
						40 166 166 
						39 167 167 
						32 168 168 
						33 169 169 
						41 170 170 
						40 171 171 
						33 172 172 
						34 173 173 
						3 174 174 
						41 175 175 
						42 176 176 
						29 177 177 
						43 178 178 
						46 179 179 
						29 180 180 
						37 181 181 
						45 182 182 
						43 183 183 
						37 184 184 
						36 185 185 
						44 186 186 
						45 187 187 
						36 188 188 
						42 189 189 
						46 190 190 
						44 191 191 
						46 192 192 
						61 193 193 
						50 194 194 
						43 195 195 
						45 196 196 
						55 197 197 
						68 198 198 
						45 199 199 
						62 200 200 
						49 201 201 
						44 202 202 
						57 203 203 
						48 204 204 
						47 205 205 
						86 206 206 
						89 207 207 
						88 208 208 
						68 209 209 
						55 210 210 
						54 211 211 
						51 212 212 
						49 213 213 
						62 214 214 
						58 215 215 
						53 216 216 
						48 217 217 
						57 218 218 
						56 219 219 
						52 220 220 
						49 221 221 
						53 222 222 
						54 223 223 
						55 224 224 
						49 225 225 
						55 226 226 
						45 227 227 
						50 228 228 
						28 229 229 
						56 230 230 
						57 231 231 
						46 232 232 
						50 233 233 
						57 234 234 
						44 235 235 
						53 236 236 
						63 237 237 
						54 238 238 
						52 239 239 
						65 240 240 
						59 241 241 
						58 242 242 
						51 243 243 
						54 244 244 
						63 245 245 
						64 246 246 
						85 247 247 
						88 248 248 
						90 249 249 
						84 250 250 
						43 251 251 
						68 252 252 
						61 253 253 
						46 254 254 
						48 255 255 
						52 256 256 
						58 257 257 
						62 258 258 
						44 259 259 
						48 260 260 
						62 261 261 
						45 262 262 
						58 263 263 
						59 264 264 
						63 265 265 
						53 266 266 
						59 267 267 
						60 268 268 
						64 269 269 
						63 270 270 
						56 271 271 
						65 272 272 
						52 273 273 
						60 274 274 
						59 275 275 
						65 276 276 
						66 277 277 
						87 278 278 
						90 279 279 
						88 280 280 
						87 281 281 
						88 282 282 
						89 283 283 
						68 284 284 
						51 285 285 
						70 286 286 
						75 287 287 
						51 288 288 
						64 289 289 
						73 290 290 
						70 291 291 
						64 292 292 
						60 293 293 
						71 294 294 
						73 295 295 
						60 296 296 
						66 297 297 
						74 298 298 
						71 299 299 
						66 300 300 
						28 301 301 
						67 302 302 
						74 303 303 
						28 304 304 
						50 305 305 
						69 306 306 
						67 307 307 
						50 308 308 
						61 309 309 
						72 310 310 
						69 311 311 
						61 312 312 
						68 313 313 
						75 314 314 
						72 315 315 
						75 316 316 
						70 317 317 
						78 318 318 
						83 319 319 
						70 320 320 
						73 321 321 
						81 322 322 
						78 323 323 
						73 324 324 
						71 325 325 
						79 326 326 
						81 327 327 
						71 328 328 
						74 329 329 
						82 330 330 
						79 331 331 
						74 332 332 
						67 333 333 
						76 334 334 
						82 335 335 
						67 336 336 
						69 337 337 
						77 338 338 
						76 339 339 
						69 340 340 
						72 341 341 
						80 342 342 
						77 343 343 
						72 344 344 
						75 345 345 
						83 346 346 
						80 347 347 
						83 348 348 
						78 349 349 
						86 350 350 
						47 351 351 
						78 352 352 
						81 353 353 
						89 354 354 
						86 355 355 
						81 356 356 
						79 357 357 
						87 358 358 
						89 359 359 
						79 360 360 
						82 361 361 
						90 362 362 
						87 363 363 
						82 364 364 
						76 365 365 
						84 366 366 
						90 367 367 
						76 368 368 
						77 369 369 
						85 370 370 
						84 371 371 
						77 372 372 
						80 373 373 
						88 374 374 
						85 375 375 
						80 376 376 
						83 377 377 
						47 378 378 
						88 379 379
					</p>
				</polylist>
			</mesh>
		</geometry>
		<geometry id="geometries_2" name="geometries_2">
			<mesh>
				<source id="geometries_2-Pos">
					<float_array id="geometries_2-Pos-array" count="156">
						0.014146 42.494026 13.090909 
						0.680669 43.110817 12.711946 
						-0.588482 42.629745 10.819462 
						-0.533395 38.549843 0.042642 
						-0.870992 0.078096 0.045503 
						-0.870992 3.033152 0.045503 
						-0.371639 0.078096 0.827155 
						-0.371639 3.033152 0.827155 
						0.404724 0.078096 0.810712 
						0.404724 3.033152 0.810712 
						-0.721963 42.629852 10.576645 
						-0.588482 42.494091 12.585064 
						0.873910 0.078096 0.029457 
						0.873910 3.033152 0.029457 
						0.371648 0.078096 -0.751600 
						0.371648 3.033152 -0.751600 
						-0.404741 0.078096 -0.735157 
						-0.404741 3.033152 -0.735157 
						0.014769 43.601425 12.724238 
						-0.533498 3.033152 0.042399 
						-0.227874 3.033152 0.521796 
						0.248159 3.033152 0.511714 
						0.589097 42.493568 10.835541 
						0.536416 3.033152 0.032560 
						0.227884 3.033152 -0.446242 
						-0.248177 3.033152 -0.436159 
						-0.588482 42.629749 12.585064 
						-0.688190 43.111870 10.577070 
						-0.721963 42.629852 12.696285 
						0.248183 37.089985 0.511977 
						0.008980 43.111176 13.297986 
						0.536520 38.549843 0.032803 
						0.227871 38.549843 -0.445978 
						-0.248153 38.549843 -0.435897 
						0.589097 42.629601 12.601143 
						0.589097 42.629601 10.835541 
						-0.227887 38.549843 0.522060 
						0.248183 38.549843 0.511977 
						0.015185 42.629730 13.297956 
						0.589097 42.493572 12.601143 
						0.682826 43.110817 10.592300 
						-0.690347 43.111870 12.696716 
						-0.227887 37.089985 0.522060 
						0.204728 42.740364 10.187888 
						-0.204728 43.190624 10.187888 
						0.204728 43.190624 10.187888 
						-0.204728 42.740364 10.187888 
						0.014146 42.629730 13.090909 
						0.711196 42.628609 10.592725 
						-0.588482 42.494087 10.819462 
						0.711196 42.628609 12.712365 
						0.001627 43.601425 10.604604
					</float_array>
					<technique_common>
						<accessor source="#geometries_2-Pos-array" count="52" stride="3">
							<param name="X" type="float"/>
							<param name="Y" type="float"/>
							<param name="Z" type="float"/>
						</accessor>
					</technique_common>
				</source>
				<source id="geometries_2-XSINormal">
					<float_array id="geometries_2-XSINormal-array" count="624">
						-0.161708 -0.982929 -0.087757 
						-0.004294 -0.996273 -0.086146 
						-0.252109 -0.966364 0.050802 
						-0.003370 -0.991206 0.132285 
						-0.161708 -0.982929 -0.087757 
						-0.000594 -1.000000 0.000046 
						0.003027 -0.996131 -0.087826 
						-0.000133 -1.000000 0.000016 
						-0.000594 -1.000000 0.000046 
						-0.006090 -0.999981 -0.000443 
						0.971828 -0.000000 0.235693 
						1.000000 0.000000 -0.000000 
						-0.014839 -0.000000 0.999890 
						-0.923880 0.000000 -0.382683 
						-0.382683 0.000000 0.923880 
						-0.382683 0.000000 0.923880 
						-0.923880 0.000000 -0.382683 
						0.000000 1.000000 0.000000 
						-0.000000 0.989036 -0.147673 
						0.000000 1.000000 0.000000 
						-0.874136 0.245162 -0.419263 
						-0.930555 0.256362 0.261431 
						-0.965533 -0.000000 0.260280 
						-0.382683 0.000000 0.923880 
						0.382683 0.000000 0.923880 
						0.382683 0.000000 0.923880 
						-0.382683 0.000000 0.923880 
						-0.000000 0.989036 -0.147673 
						-0.000000 0.989036 -0.147673 
						0.000000 1.000000 0.000000 
						-0.965533 -0.000000 0.260280 
						-0.014839 -0.000000 0.999890 
						0.967982 0.046533 0.246669 
						0.382683 0.000000 0.923880 
						0.923880 0.000000 0.382683 
						0.923880 0.000000 0.382683 
						0.382683 0.000000 0.923880 
						-0.000000 0.989036 -0.147673 
						0.000000 1.000000 0.000000 
						0.000000 1.000000 0.000000 
						-0.003370 -0.991206 0.132285 
						0.257417 -0.965122 0.047713 
						-0.585452 0.491935 -0.644396 
						0.003027 -0.996131 -0.087826 
						0.038779 0.933946 -0.355305 
						0.003865 0.938872 0.344246 
						-0.000133 -1.000000 0.000016 
						-0.006090 -0.999981 -0.000443 
						-0.004294 -0.996273 -0.086146 
						-0.965533 -0.000000 0.260280 
						0.880738 0.242755 -0.406657 
						0.903815 0.044211 -0.425633 
						0.938741 0.253005 0.233993 
						0.923880 0.000000 0.382683 
						0.382683 0.000000 -0.923880 
						0.382683 0.000000 -0.923880 
						0.923880 0.000000 0.382683 
						0.000000 1.000000 0.000000 
						0.000000 1.000000 0.000000 
						0.000000 1.000000 0.000000 
						0.938741 0.253005 0.233993 
						0.003865 0.938872 0.344246 
						0.038779 0.933946 -0.355305 
						0.382683 0.000000 -0.923880 
						-0.382683 0.000000 -0.923880 
						-0.382683 0.000000 -0.923880 
						0.382683 0.000000 -0.923880 
						-0.874136 0.245162 -0.419263 
						-0.930555 0.256362 0.261431 
						-0.960131 0.048057 0.275390 
						0.880738 0.242755 -0.406657 
						0.967982 0.046533 0.246669 
						0.938741 0.253005 0.233993 
						-0.382683 0.000000 -0.923880 
						-0.923880 0.000000 -0.382683 
						-0.923880 0.000000 -0.382683 
						-0.382683 0.000000 -0.923880 
						-0.897542 0.050248 -0.438056 
						1.000000 0.000000 -0.000000 
						0.971828 -0.000000 0.235693 
						-0.000434 -1.000000 -0.000094 
						-0.004294 -0.996273 -0.086146 
						-0.002015 -0.991018 0.133712 
						0.003027 -0.996131 -0.087826 
						0.000000 1.000000 0.000000 
						0.000000 1.000000 0.000000 
						0.000000 1.000000 0.000000 
						0.000000 1.000000 0.000000 
						0.000000 1.000000 0.000000 
						0.000000 1.000000 0.000000 
						0.000000 1.000000 0.000000 
						0.000000 1.000000 0.000000 
						0.000000 1.000000 0.000000 
						0.000000 1.000000 0.000000 
						0.000000 1.000000 0.000000 
						0.000000 1.000000 0.000000 
						-0.161708 -0.982929 -0.087757 
						0.257417 -0.965122 0.047713 
						0.164696 -0.982498 -0.087019 
						0.046961 0.000000 -0.998897 
						0.000000 1.000000 0.000000 
						0.000000 1.000000 0.000000 
						0.000000 1.000000 0.000000 
						0.000000 1.000000 0.000000 
						0.000000 1.000000 0.000000 
						0.000000 1.000000 0.000000 
						0.000000 1.000000 0.000000 
						0.000000 1.000000 0.000000 
						0.000000 1.000000 0.000000 
						0.000000 1.000000 0.000000 
						0.000000 1.000000 0.000000 
						0.000000 1.000000 0.000000 
						-0.006090 -0.999981 -0.000443 
						-0.002015 -0.991018 0.133712 
						-0.004533 -0.999989 0.000903 
						-0.000133 -1.000000 0.000016 
						-0.923880 0.000003 -0.382683 
						-0.382683 -0.000007 0.923880 
						-0.621371 -0.222143 0.751366 
						-0.923880 0.000000 -0.382683 
						-0.382683 -0.000007 0.923880 
						0.382683 -0.000007 0.923880 
						0.621371 -0.222143 0.751366 
						-0.621371 -0.222143 0.751366 
						0.382683 -0.000007 0.923880 
						0.923880 -0.000003 0.382683 
						0.923880 0.000000 0.382683 
						0.621371 -0.222143 0.751366 
						-0.020329 0.000000 -0.999793 
						-0.020329 0.000000 -0.999793 
						0.046961 0.000000 -0.998897 
						-0.000434 -1.000000 -0.000094 
						0.923880 -0.000003 0.382683 
						0.382683 0.000007 -0.923880 
						0.382683 0.000000 -0.923880 
						0.923880 0.000000 0.382683 
						0.382683 0.000007 -0.923880 
						-0.382683 0.000007 -0.923880 
						-0.382683 0.000000 -0.923880 
						0.382683 0.000000 -0.923880 
						-0.382683 0.000007 -0.923880 
						-0.923880 0.000003 -0.382683 
						-0.923880 0.000000 -0.382683 
						-0.382683 0.000000 -0.923880 
						0.003865 0.938872 0.344246 
						0.496893 0.566170 -0.657684 
						0.038779 0.933946 -0.355305 
						-0.005304 0.431695 0.902004 
						0.038779 0.933946 -0.355305 
						-0.621371 -0.222143 0.751366 
						-0.923880 0.000000 0.382683 
						-0.923880 0.000000 -0.382683 
						-0.014839 -0.000000 0.999890 
						-0.005304 0.431695 0.902004 
						0.971828 -0.000000 0.235693 
						-0.014839 -0.000000 0.999890 
						0.621371 -0.222143 0.751366 
						0.923880 0.000000 0.382683 
						-0.585452 0.491935 -0.644396 
						0.923880 0.000000 0.382683 
						-0.006090 -0.999981 -0.000443 
						-1.000000 -0.000000 0.000000 
						-1.000000 -0.000000 0.000000 
						-0.965533 -0.000000 0.260280 
						-0.874136 0.245162 -0.419263 
						-0.897542 0.050248 -0.438056 
						-0.930555 0.256362 0.261431 
						-0.898962 0.012617 -0.437844 
						0.002205 -0.999984 -0.005171 
						-0.874136 0.245162 -0.419263 
						-0.008934 0.001231 0.999959 
						0.971828 -0.000000 0.235693 
						0.003865 0.938872 0.344246 
						-0.585452 0.491935 -0.644396 
						-0.005304 0.431695 0.902004 
						0.938741 0.253005 0.233993 
						-0.621371 -0.222143 0.751366 
						0.621371 -0.222143 0.751366 
						-0.002015 -0.991018 0.133712 
						0.002205 -0.999984 -0.005171 
						0.621371 -0.222143 0.751366 
						0.923880 0.000000 0.382683 
						0.496893 0.566170 -0.657684 
						0.904728 0.010518 -0.425860 
						-0.000000 0.989036 -0.147673 
						-0.000000 0.989036 -0.147673 
						-0.585452 0.491935 -0.644396 
						0.496893 0.566170 -0.657684 
						-0.923880 0.000000 0.382683 
						-0.621371 -0.222143 0.751366 
						-0.898962 0.012617 -0.437844 
						-0.585452 0.491935 -0.644396 
						0.003027 -0.996131 -0.087826 
						-0.960131 0.048057 0.275390 
						-0.930555 0.256362 0.261431 
						0.904728 0.010518 -0.425860 
						0.496893 0.566170 -0.657684 
						0.880738 0.242755 -0.406657 
						0.903815 0.044211 -0.425633 
						0.496893 0.566170 -0.657684 
						0.038779 0.933946 -0.355305 
						0.880738 0.242755 -0.406657 
						-0.004533 -0.999989 0.000903 
						-0.000594 -1.000000 0.000046 
						-0.000133 -1.000000 0.000016 
						-0.008934 0.001231 0.999959 
						-0.005304 0.431695 0.902004 
						-0.000594 -1.000000 0.000046
					</float_array>
					<technique_common>
						<accessor source="#geometries_2-XSINormal-array" count="208" stride="3">
							<param name="X" type="float"/>
							<param name="Y" type="float"/>
							<param name="Z" type="float"/>
						</accessor>
					</technique_common>
				</source>
				<source id="geometries_2-Texture_Projection">
					<float_array id="geometries_2-Texture_Projection-array" count="416">
						0.156166 0.037534 
						0.744224 0.535292 
						0.156814 0.481279 
						0.308985 0.608155 
						0.156166 0.037534 
						0.500234 0.164374 
						0.476582 0.539060 
						0.612519 0.031084 
						0.475235 0.143700 
						0.742877 0.139932 
						0.946456 0.833933 
						0.946455 0.543266 
						0.969849 0.932187 
						0.045408 0.017282 
						0.077896 0.017282 
						0.077896 0.089756 
						0.045408 0.089756 
						0.343146 0.733752 
						0.442319 0.634579 
						0.372193 0.803878 
						0.481884 0.543566 
						0.480134 0.148206 
						0.969850 0.985348 
						0.077896 0.017282 
						0.094139 0.017282 
						0.094139 0.089756 
						0.077896 0.089756 
						0.442319 0.634579 
						0.512445 0.663626 
						0.372193 0.803878 
						0.946537 0.985348 
						0.946534 0.932187 
						0.784520 0.299301 
						0.094139 0.017282 
						0.110383 0.017282 
						0.110383 0.089756 
						0.094139 0.089756 
						0.512445 0.663626 
						0.541492 0.733752 
						0.372193 0.803878 
						0.308985 0.608155 
						0.453809 0.484809 
						0.572256 0.616654 
						0.476582 0.539060 
						0.609672 0.542741 
						0.610779 0.147375 
						0.612519 0.031084 
						0.742877 0.139932 
						0.744224 0.535292 
						0.946545 0.065984 
						0.844750 0.023526 
						0.784520 0.026107 
						0.736170 0.144631 
						0.110383 0.017282 
						0.142871 0.017282 
						0.142871 0.089756 
						0.110383 0.089756 
						0.541492 0.733752 
						0.442319 0.832925 
						0.372193 0.803878 
						0.736170 0.144631 
						0.610779 0.147375 
						0.609672 0.542741 
						0.012920 0.017282 
						0.029164 0.017282 
						0.029164 0.089756 
						0.012920 0.089756 
						0.844881 0.757550 
						0.844881 0.470981 
						0.784675 0.474069 
						0.737920 0.539991 
						0.784520 0.299301 
						0.844750 0.302104 
						0.029164 0.017282 
						0.045408 0.017282 
						0.045408 0.089756 
						0.029164 0.089756 
						0.784675 0.754443 
						0.969827 0.543266 
						0.969827 0.833933 
						0.501356 0.493698 
						0.744224 0.535292 
						0.649663 0.612138 
						0.476582 0.539060 
						0.280561 0.733797 
						0.442300 0.572058 
						0.442300 0.634624 
						0.343127 0.733797 
						0.442300 0.572058 
						0.556667 0.619430 
						0.512426 0.663671 
						0.442300 0.634624 
						0.556667 0.619430 
						0.604039 0.733797 
						0.541473 0.733797 
						0.512426 0.663671 
						0.156166 0.037534 
						0.453809 0.484809 
						0.453160 0.041064 
						0.946544 0.378719 
						0.604039 0.733797 
						0.442300 0.895536 
						0.442300 0.832970 
						0.541473 0.733797 
						0.442300 0.895536 
						0.327933 0.848164 
						0.372174 0.803923 
						0.442300 0.832970 
						0.327933 0.848164 
						0.280561 0.733797 
						0.343127 0.733797 
						0.372174 0.803923 
						0.720143 0.160751 
						0.649663 0.612138 
						0.721265 0.490075 
						0.612457 0.069704 
						0.057554 0.090181 
						0.081322 0.090181 
						0.081708 0.925014 
						0.058575 0.960817 
						0.081322 0.090181 
						0.093205 0.090181 
						0.092819 0.925014 
						0.081708 0.925014 
						0.093205 0.090181 
						0.105089 0.090181 
						0.104123 0.960817 
						0.092819 0.925014 
						0.946455 0.543266 
						0.969827 0.543266 
						0.969853 0.378719 
						0.501356 0.493698 
						0.105089 0.090181 
						0.128856 0.090181 
						0.128416 0.960817 
						0.104123 0.960817 
						0.033787 0.090181 
						0.045671 0.090181 
						0.046111 0.960817 
						0.033347 0.960817 
						0.045671 0.090181 
						0.057554 0.090181 
						0.058575 0.960817 
						0.046111 0.960817 
						0.610779 0.147375 
						0.648723 0.616438 
						0.609672 0.542741 
						0.844794 0.384984 
						0.609672 0.542741 
						0.081708 0.925014 
						0.081708 0.960817 
						0.058575 0.960817 
						0.946534 0.932187 
						0.844794 0.384984 
						0.946456 0.833933 
						0.969849 0.932187 
						0.092819 0.925014 
						0.104123 0.960817 
						0.854717 0.816769 
						0.092819 0.960817 
						0.720143 0.160751 
						0.946544 0.378719 
						0.969853 0.378719 
						0.969853 0.065984 
						0.844881 0.757550 
						0.784675 0.754443 
						0.480134 0.148206 
						0.798478 0.816769 
						0.573195 0.612354 
						0.481884 0.543566 
						0.784659 0.384436 
						0.969827 0.833933 
						0.610779 0.147375 
						0.572256 0.616654 
						0.610356 0.035680 
						0.844750 0.302104 
						0.913874 0.018334 
						0.879022 0.018409 
						0.881002 0.969065 
						0.915855 0.968991 
						0.141072 0.878791 
						0.181338 0.962402 
						0.862350 0.961881 
						0.849931 0.936093 
						0.879022 0.074824 
						0.913874 0.074749 
						0.915855 0.986390 
						0.881002 0.986465 
						0.181338 0.962402 
						0.141072 0.878791 
						0.849931 0.936093 
						0.862350 0.961881 
						0.476582 0.539060 
						0.784675 0.474069 
						0.844881 0.470981 
						0.798478 0.855121 
						0.854717 0.855121 
						0.844750 0.914717 
						0.784520 0.917298 
						0.648723 0.616438 
						0.609672 0.542741 
						0.737920 0.539991 
						0.721265 0.490075 
						0.500234 0.164374 
						0.612457 0.069704 
						0.784659 0.384436 
						0.610356 0.035680 
						0.475235 0.143700
					</float_array>
					<technique_common>
						<accessor source="#geometries_2-Texture_Projection-array" count="208" stride="2">
							<param name="S" type="float"/>
							<param name="T" type="float"/>
						</accessor>
					</technique_common>
				</source>
				<vertices id="geometries_2-Vtx">
					<input semantic="POSITION" source="#geometries_2-Pos"/>
				</vertices>
				<polylist count="56" material="Street_LightLOD">
					<input semantic="VERTEX" source="#geometries_2-Vtx" offset="0"/>
					<input semantic="NORMAL" source="#geometries_2-XSINormal" offset="1"/>
					<input semantic="TEXCOORD" source="#geometries_2-Texture_Projection" offset="2"/>
					<vcount>
						3 3 3 4 
						4 3 4 4 
						3 4 4 3 
						3 3 4 4 
						4 3 4 4 
						4 4 4 4 
						3 4 4 4 
						4 4 4 4 
						3 4 4 4 
						4 4 4 4 
						4 3 4 3 
						4 4 3 3 
						4 4 4 4 
						4 4 3 4
					</vcount>
					<p>
						0 3 3 
						11 2 2 
						49 0 0 
						39 41 41 
						0 40 40 
						49 4 4 
						18 144 144 
						30 206 206 
						1 52 52 
						38 205 205 
						30 153 153 
						41 194 194 
						28 193 193 
						4 13 13 
						6 14 14 
						7 15 15 
						5 16 16 
						3 17 17 
						36 18 18 
						33 19 19 
						10 192 192 
						48 1 1 
						35 202 202 
						2 80 80 
						6 23 23 
						8 24 24 
						9 25 25 
						7 26 26 
						36 27 27 
						37 28 28 
						33 29 29 
						34 171 171 
						47 12 12 
						0 152 152 
						39 154 154 
						8 33 33 
						12 34 34 
						13 35 35 
						9 36 36 
						37 37 37 
						31 38 38 
						33 39 39 
						44 42 42 
						51 146 146 
						45 145 145 
						22 98 98 
						39 97 97 
						49 96 96 
						26 163 163 
						2 162 162 
						49 161 161 
						11 49 49 
						38 46 46 
						28 8 8 
						26 203 203 
						47 204 204 
						12 53 53 
						14 54 54 
						15 55 55 
						13 56 56 
						31 57 57 
						32 58 58 
						33 59 59 
						40 70 70 
						51 62 62 
						18 61 61 
						1 60 60 
						14 63 63 
						16 64 64 
						17 65 65 
						15 66 66 
						46 167 167 
						10 165 165 
						27 164 164 
						44 158 158 
						48 51 51 
						40 50 50 
						1 72 72 
						50 71 71 
						16 73 73 
						4 74 74 
						5 75 75 
						17 76 76 
						10 77 77 
						28 69 69 
						41 68 68 
						27 67 67 
						43 82 82 
						10 6 6 
						46 168 168 
						5 84 84 
						7 85 85 
						20 86 86 
						19 87 87 
						7 88 88 
						9 89 89 
						21 90 90 
						20 91 91 
						9 92 92 
						13 93 93 
						23 94 94 
						21 95 95 
						2 130 130 
						35 129 129 
						22 128 128 
						49 99 99 
						13 100 100 
						15 101 101 
						24 102 102 
						23 103 103 
						15 104 104 
						17 105 105 
						25 106 106 
						24 107 107 
						17 108 108 
						5 109 109 
						19 110 110 
						25 111 111 
						48 81 81 
						10 83 83 
						43 113 113 
						19 116 116 
						20 117 117 
						42 118 118 
						3 119 119 
						20 120 120 
						21 121 121 
						29 122 122 
						42 123 123 
						21 124 124 
						23 125 125 
						31 126 126 
						29 127 127 
						50 9 9 
						38 7 7 
						47 115 115 
						34 112 112 
						23 132 132 
						24 133 133 
						32 134 134 
						31 135 135 
						24 136 136 
						25 137 137 
						33 138 138 
						32 139 139 
						25 140 140 
						19 141 141 
						3 142 142 
						33 143 143 
						48 48 48 
						50 47 47 
						34 160 160 
						35 114 114 
						42 149 149 
						36 150 150 
						3 151 151 
						27 169 169 
						41 21 21 
						18 45 45 
						51 44 44 
						29 156 156 
						31 157 157 
						37 159 159 
						30 147 147 
						38 170 170 
						50 32 32 
						1 175 175 
						35 78 78 
						34 79 79 
						39 10 10 
						22 11 11 
						41 166 166 
						30 174 174 
						18 172 172 
						27 20 20 
						51 148 148 
						44 173 173 
						42 176 176 
						29 177 177 
						43 178 178 
						46 179 179 
						29 180 180 
						37 181 181 
						45 182 182 
						43 183 183 
						37 184 184 
						36 185 185 
						44 186 186 
						45 187 187 
						36 188 188 
						42 189 189 
						46 190 190 
						44 191 191 
						28 207 207 
						10 43 43 
						2 131 131 
						26 5 5 
						43 195 195 
						45 196 196 
						40 197 197 
						48 198 198 
						45 199 199 
						51 200 200 
						40 201 201 
						47 155 155 
						26 22 22 
						11 30 30 
						0 31 31
					</p>
				</polylist>
			</mesh>
		</geometry>
		<geometry id="geometries_3" name="geometries_3">
			<mesh>
				<source id="geometries_3-Pos">
					<float_array id="geometries_3-Pos-array" count="9">
						-4.000000 -4.000000 -4.000000 
						4.000000 -4.000000 -4.000000 
						-4.000000 -4.000000 4.000000
					</float_array>
					<technique_common>
						<accessor source="#geometries_3-Pos-array" count="3" stride="3">
							<param name="X" type="float"/>
							<param name="Y" type="float"/>
							<param name="Z" type="float"/>
						</accessor>
					</technique_common>
				</source>
				<source id="geometries_3-XSINormal">
					<float_array id="geometries_3-XSINormal-array" count="9">
						0.000000 -1.000000 0.000000 
						0.000000 -1.000000 0.000000 
						0.000000 -1.000000 0.000000
					</float_array>
					<technique_common>
						<accessor source="#geometries_3-XSINormal-array" count="3" stride="3">
							<param name="X" type="float"/>
							<param name="Y" type="float"/>
							<param name="Z" type="float"/>
						</accessor>
					</technique_common>
				</source>
				<vertices id="geometries_3-Vtx">
					<input semantic="POSITION" source="#geometries_3-Pos"/>
				</vertices>
				<polylist count="1" material="Street_LightLOD">
					<input semantic="VERTEX" source="#geometries_3-Vtx" offset="0"/>
					<input semantic="NORMAL" source="#geometries_3-XSINormal" offset="1"/>
					<vcount>
						3
					</vcount>
					<p>
						0 1 
						1 2 
						2 0
					</p>
				</polylist>
			</mesh>
		</geometry>
		<geometry id="geometries_4" name="geometries_4">
			<mesh>
				<source id="geometries_4-Pos">
					<float_array id="geometries_4-Pos-array" count="156">
						-42.547733 -4.000000 -4.000000 
						44.495564 -4.000000 -4.000000 
						-4.000000 4.000000 -4.000000 
						44.495564 4.000000 -4.000000 
						-4.000000 -4.000000 23.566326 
						4.000000 -4.000000 4.000000 
						-42.547733 4.000000 4.000000 
						4.000000 4.000000 23.566326 
						4.000000 2.251972 4.000000 
						-4.000000 2.251972 4.000000 
						4.000000 2.251972 -4.000000 
						-4.000000 2.251972 -57.275394 
						4.000000 -2.175642 4.000000 
						-4.000000 -2.175642 4.000000 
						4.000000 -2.175642 -4.000000 
						-4.000000 -2.175642 -4.000000 
						-4.000000 -6.926495 4.000000 
						4.000000 -4.000000 23.566326 
						4.000000 -2.175642 23.566326 
						-4.000000 -2.175642 23.566326 
						-4.000000 4.000000 23.566326 
						4.000000 6.504771 4.000000 
						4.000000 2.251972 23.566326 
						-4.000000 2.251972 23.566326 
						-4.000000 -6.926495 23.566326 
						4.000000 -6.926495 4.000000 
						-4.000000 -4.000000 4.000000 
						4.000000 -6.926495 23.566326 
						-4.000000 6.504771 4.000000 
						4.000000 6.504771 23.566326 
						-4.000000 6.504771 23.566326 
						4.000000 4.000000 4.000000 
						4.000000 2.251972 -57.275394 
						-4.000000 2.251972 -4.000000 
						4.000000 -2.175642 -57.275394 
						-4.000000 -2.175642 -57.275394 
						-4.000000 -4.000000 -4.000000 
						-42.547733 -2.175642 4.000000 
						-42.547733 -2.175642 -4.000000 
						-42.547733 -4.000000 4.000000 
						-42.547733 4.000000 -4.000000 
						-4.000000 4.000000 4.000000 
						-42.547733 2.251972 4.000000 
						-42.547733 2.251972 -4.000000 
						4.000000 -4.000000 -4.000000 
						44.495564 -4.000000 4.000000 
						44.495564 -2.175642 4.000000 
						44.495564 -2.175642 -4.000000 
						4.000000 4.000000 -4.000000 
						44.495564 2.251972 4.000000 
						44.495564 2.251972 -4.000000 
						44.495564 4.000000 4.000000
					</float_array>
					<technique_common>
						<accessor source="#geometries_4-Pos-array" count="52" stride="3">
							<param name="X" type="float"/>
							<param name="Y" type="float"/>
							<param name="Z" type="float"/>
						</accessor>
					</technique_common>
				</source>
				<source id="geometries_4-XSINormal">
					<float_array id="geometries_4-XSINormal-array" count="600">
						0.000000 0.000000 -1.000000 
						0.000000 0.000000 -1.000000 
						0.000000 0.000000 -1.000000 
						0.000000 0.000000 -1.000000 
						0.000000 -1.000000 0.000000 
						0.000000 -1.000000 0.000000 
						0.000000 -1.000000 0.000000 
						0.000000 -1.000000 0.000000 
						-1.000000 0.000000 -0.000000 
						-1.000000 0.000000 -0.000000 
						-1.000000 0.000000 0.000000 
						-1.000000 0.000000 0.000000 
						1.000000 0.000000 0.000000 
						1.000000 0.000000 0.000000 
						1.000000 0.000000 0.000000 
						1.000000 0.000000 0.000000 
						0.000000 1.000000 0.000000 
						0.000000 1.000000 0.000000 
						0.000000 1.000000 0.000000 
						0.000000 1.000000 0.000000 
						0.000000 0.000000 1.000000 
						0.000000 0.000000 1.000000 
						0.000000 0.000000 1.000000 
						0.000000 0.000000 1.000000 
						1.000000 0.000000 0.000000 
						-0.000000 0.000000 1.000000 
						-1.000000 0.000000 0.000000 
						-0.000000 0.000000 1.000000 
						-0.000000 0.000000 1.000000 
						-0.000000 0.000000 1.000000 
						-0.000000 0.000000 -1.000000 
						1.000000 0.000000 0.000000 
						1.000000 0.000000 0.000000 
						1.000000 0.000000 0.000000 
						-0.000000 0.000000 -1.000000 
						-1.000000 0.000000 0.000000 
						-1.000000 0.000000 0.000000 
						-1.000000 0.000000 0.000000 
						0.000000 0.000000 -1.000000 
						0.000000 0.000000 -1.000000 
						1.000000 0.000000 0.000000 
						0.000000 0.000000 1.000000 
						-1.000000 0.000000 -0.000000 
						0.000000 0.000000 1.000000 
						-0.000000 0.000000 1.000000 
						-0.000000 0.000000 1.000000 
						0.000000 0.000000 -1.000000 
						1.000000 0.000000 0.000000 
						1.000000 0.000000 0.000000 
						1.000000 0.000000 0.000000 
						0.000000 0.000000 -1.000000 
						-1.000000 0.000000 -0.000000 
						-1.000000 0.000000 0.000000 
						-1.000000 0.000000 0.000000 
						-0.000000 0.000000 -1.000000 
						-0.000000 0.000000 -1.000000 
						-0.000000 -1.000000 0.000000 
						-0.000000 -1.000000 0.000000 
						-0.000000 -1.000000 0.000000 
						-0.000000 -1.000000 0.000000 
						1.000000 0.000000 0.000000 
						1.000000 0.000000 0.000000 
						1.000000 0.000000 0.000000 
						1.000000 0.000000 0.000000 
						0.000000 1.000000 0.000000 
						0.000000 1.000000 0.000000 
						0.000000 1.000000 0.000000 
						0.000000 1.000000 0.000000 
						-1.000000 0.000000 0.000000 
						-1.000000 0.000000 0.000000 
						-1.000000 0.000000 0.000000 
						-1.000000 0.000000 0.000000 
						-0.000000 1.000000 0.000000 
						-0.000000 1.000000 0.000000 
						-0.000000 1.000000 0.000000 
						-0.000000 1.000000 0.000000 
						-1.000000 0.000000 0.000000 
						-1.000000 0.000000 0.000000 
						-1.000000 0.000000 0.000000 
						-1.000000 0.000000 0.000000 
						-0.000000 -1.000000 0.000000 
						-0.000000 -1.000000 0.000000 
						-0.000000 -1.000000 0.000000 
						-0.000000 -1.000000 0.000000 
						1.000000 0.000000 0.000000 
						1.000000 0.000000 0.000000 
						1.000000 0.000000 0.000000 
						1.000000 0.000000 0.000000 
						-0.000000 0.000000 -1.000000 
						-0.000000 0.000000 -1.000000 
						-0.000000 0.000000 -1.000000 
						-0.000000 0.000000 -1.000000 
						1.000000 0.000000 0.000000 
						1.000000 0.000000 0.000000 
						1.000000 0.000000 0.000000 
						1.000000 0.000000 0.000000 
						0.000000 0.000000 1.000000 
						0.000000 0.000000 1.000000 
						-0.000000 0.000000 1.000000 
						-0.000000 0.000000 1.000000 
						-1.000000 0.000000 0.000000 
						-1.000000 0.000000 0.000000 
						-1.000000 0.000000 0.000000 
						-1.000000 0.000000 0.000000 
						0.000000 0.000000 -1.000000 
						0.000000 0.000000 -1.000000 
						0.000000 0.000000 -1.000000 
						0.000000 0.000000 -1.000000 
						-1.000000 0.000000 0.000000 
						-1.000000 0.000000 0.000000 
						-1.000000 0.000000 -0.000000 
						-1.000000 0.000000 -0.000000 
						0.000000 0.000000 1.000000 
						0.000000 0.000000 1.000000 
						0.000000 0.000000 1.000000 
						0.000000 0.000000 1.000000 
						1.000000 0.000000 0.000000 
						1.000000 0.000000 0.000000 
						1.000000 0.000000 -0.000000 
						1.000000 0.000000 -0.000000 
						0.000000 1.000000 0.000000 
						0.000000 1.000000 0.000000 
						0.000000 1.000000 0.000000 
						0.000000 1.000000 0.000000 
						1.000000 0.000000 0.000000 
						1.000000 0.000000 0.000000 
						1.000000 -0.000000 0.000000 
						1.000000 -0.000000 0.000000 
						-0.000000 -1.000000 0.000000 
						-0.000000 -1.000000 0.000000 
						-0.000000 -1.000000 0.000000 
						-0.000000 -1.000000 0.000000 
						-1.000000 0.000000 0.000000 
						-1.000000 0.000000 0.000000 
						-1.000000 -0.000000 0.000000 
						-1.000000 -0.000000 0.000000 
						0.000000 -1.000000 0.000000 
						0.000000 -1.000000 0.000000 
						0.000000 -1.000000 -0.000000 
						0.000000 -1.000000 -0.000000 
						0.000000 0.000000 1.000000 
						0.000000 0.000000 1.000000 
						0.000000 0.000000 1.000000 
						0.000000 0.000000 1.000000 
						0.000000 1.000000 -0.000000 
						0.000000 1.000000 -0.000000 
						0.000000 1.000000 -0.000000 
						0.000000 1.000000 -0.000000 
						0.000000 0.000000 -1.000000 
						0.000000 0.000000 -1.000000 
						0.000000 0.000000 -1.000000 
						0.000000 0.000000 -1.000000 
						0.000000 1.000000 0.000000 
						0.000000 1.000000 0.000000 
						0.000000 1.000000 -0.000000 
						0.000000 1.000000 -0.000000 
						0.000000 0.000000 -1.000000 
						0.000000 0.000000 -1.000000 
						0.000000 0.000000 -1.000000 
						0.000000 0.000000 -1.000000 
						0.000000 -1.000000 -0.000000 
						0.000000 -1.000000 -0.000000 
						0.000000 -1.000000 -0.000000 
						0.000000 -1.000000 -0.000000 
						0.000000 0.000000 1.000000 
						0.000000 0.000000 1.000000 
						0.000000 0.000000 1.000000 
						0.000000 0.000000 1.000000 
						0.000000 0.000000 -1.000000 
						0.000000 0.000000 -1.000000 
						0.000000 -0.000000 -1.000000 
						0.000000 -0.000000 -1.000000 
						0.000000 1.000000 0.000000 
						0.000000 1.000000 0.000000 
						0.000000 1.000000 0.000000 
						0.000000 1.000000 0.000000 
						0.000000 -0.000000 1.000000 
						0.000000 -0.000000 1.000000 
						0.000000 -0.000000 1.000000 
						0.000000 -0.000000 1.000000 
						0.000000 -1.000000 0.000000 
						0.000000 -1.000000 0.000000 
						0.000000 -1.000000 0.000000 
						0.000000 -1.000000 0.000000 
						0.000000 1.000000 0.000000 
						0.000000 1.000000 0.000000 
						0.000000 1.000000 0.000000 
						0.000000 1.000000 0.000000 
						0.000000 -0.000000 1.000000 
						0.000000 -0.000000 1.000000 
						0.000000 -0.000000 1.000000 
						0.000000 -0.000000 1.000000 
						0.000000 -1.000000 0.000000 
						0.000000 -1.000000 0.000000 
						0.000000 -1.000000 0.000000 
						0.000000 -1.000000 0.000000 
						0.000000 0.000000 -1.000000 
						0.000000 0.000000 -1.000000 
						0.000000 -0.000000 -1.000000 
						0.000000 -0.000000 -1.000000
					</float_array>
					<technique_common>
						<accessor source="#geometries_4-XSINormal-array" count="200" stride="3">
							<param name="X" type="float"/>
							<param name="Y" type="float"/>
							<param name="Z" type="float"/>
						</accessor>
					</technique_common>
				</source>
				<vertices id="geometries_4-Vtx">
					<input semantic="POSITION" source="#geometries_4-Pos"/>
				</vertices>
				<polylist count="50" material="Street_Light">
					<input semantic="VERTEX" source="#geometries_4-Vtx" offset="0"/>
					<input semantic="NORMAL" source="#geometries_4-XSINormal" offset="1"/>
					<vcount>
						4 4 4 4 
						4 4 4 4 
						4 4 4 4 
						4 4 4 4 
						4 4 4 4 
						4 4 4 4 
						4 4 4 4 
						4 4 4 4 
						4 4 4 4 
						4 4 4 4 
						4 4 4 4 
						4 4 4 4 
						4 4
					</vcount>
					<p>
						36 0 
						15 50 
						14 46 
						44 3 
						36 4 
						44 5 
						5 6 
						26 7 
						0 8 
						39 9 
						37 42 
						38 51 
						1 12 
						47 47 
						46 40 
						45 15 
						2 16 
						41 17 
						31 18 
						48 19 
						4 20 
						17 21 
						18 41 
						19 43 
						7 22 
						20 23 
						23 29 
						22 28 
						3 13 
						51 14 
						49 33 
						50 32 
						6 10 
						40 11 
						43 37 
						42 36 
						2 1 
						48 2 
						10 39 
						33 38 
						8 25 
						9 27 
						13 45 
						12 44 
						10 31 
						8 24 
						12 49 
						14 48 
						9 26 
						33 35 
						15 53 
						13 52 
						11 34 
						32 30 
						34 55 
						35 54 
						16 56 
						25 57 
						27 58 
						24 59 
						5 60 
						12 61 
						18 62 
						17 63 
						12 64 
						13 65 
						19 66 
						18 67 
						13 68 
						26 69 
						4 70 
						19 71 
						21 72 
						28 73 
						30 74 
						29 75 
						41 76 
						9 77 
						23 78 
						20 79 
						9 80 
						8 81 
						22 82 
						23 83 
						8 84 
						31 85 
						7 86 
						22 87 
						26 88 
						5 89 
						25 90 
						16 91 
						5 92 
						17 93 
						27 94 
						25 95 
						17 96 
						4 97 
						24 98 
						27 99 
						4 100 
						26 101 
						16 102 
						24 103 
						31 104 
						41 105 
						28 106 
						21 107 
						41 108 
						20 109 
						30 110 
						28 111 
						20 112 
						7 113 
						29 114 
						30 115 
						7 116 
						31 117 
						21 118 
						29 119 
						33 120 
						10 121 
						32 122 
						11 123 
						10 124 
						14 125 
						34 126 
						32 127 
						14 128 
						15 129 
						35 130 
						34 131 
						15 132 
						33 133 
						11 134 
						35 135 
						36 136 
						26 137 
						39 138 
						0 139 
						26 140 
						13 141 
						37 142 
						39 143 
						13 144 
						15 145 
						38 146 
						37 147 
						15 148 
						36 149 
						0 150 
						38 151 
						41 152 
						2 153 
						40 154 
						6 155 
						2 156 
						33 157 
						43 158 
						40 159 
						33 160 
						9 161 
						42 162 
						43 163 
						9 164 
						41 165 
						6 166 
						42 167 
						44 168 
						14 169 
						47 170 
						1 171 
						14 172 
						12 173 
						46 174 
						47 175 
						12 176 
						5 177 
						45 178 
						46 179 
						5 180 
						44 181 
						1 182 
						45 183 
						48 184 
						31 185 
						51 186 
						3 187 
						31 188 
						8 189 
						49 190 
						51 191 
						8 192 
						10 193 
						50 194 
						49 195 
						10 196 
						48 197 
						3 198 
						50 199
					</p>
				</polylist>
			</mesh>
		</geometry>
	</library_geometries>
	<library_visual_scenes>
		<visual_scene id="visual_scenes_0" name="visual_scenes_0">
			<node id="base01" name="base01">
				<translate sid="translation">0.000000 0.000000 0.000000</translate>
				<rotate sid="rotation_z">0.000000 0.000000 1.000000 0.000000</rotate>
				<rotate sid="rotation_y">0.000000 1.000000 0.000000 0.000000</rotate>
				<rotate sid="rotation_x">1.000000 0.000000 0.000000 0.000000</rotate>
				<scale sid="scale">1.000000 1.000000 1.000000</scale>
				<node id="Camera_Root" name="Camera_Root">
					<translate sid="translation">0.000000 2.000000 20.000000</translate>
					<rotate sid="rotation_z">0.000000 0.000000 1.000000 0.000000</rotate>
					<rotate sid="rotation_y">0.000000 1.000000 0.000000 0.000000</rotate>
					<rotate sid="rotation_x">1.000000 0.000000 0.000000 0.000000</rotate>
					<scale sid="scale">1.000000 1.000000 1.000000</scale>
					<node id="Camera" name="Camera">
						<translate sid="translation">-56.947632 30.532646 -46.017620</translate>
						<rotate sid="rotation_z">0.000000 0.000000 1.000000 -0.000000</rotate>
						<rotate sid="rotation_y">0.000000 1.000000 0.000000 -108.720001</rotate>
						<rotate sid="rotation_x">1.000000 0.000000 0.000000 -19.750593</rotate>
						<scale sid="scale">1.000000 1.000000 1.000000</scale>
						<instance_camera url="#cameras_0"/>
					</node>
					<node id="Camera_Interest" name="Camera_Interest">
						<translate sid="translation">2.518440 7.988844 -25.866325</translate>
						<rotate sid="rotation_z">0.000000 0.000000 1.000000 0.000000</rotate>
						<rotate sid="rotation_y">0.000000 1.000000 0.000000 0.000000</rotate>
						<rotate sid="rotation_x">1.000000 0.000000 0.000000 0.000000</rotate>
						<scale sid="scale">1.000000 1.000000 1.000000</scale>
					</node>
				</node>
				<node id="start01" name="start01">
					<translate sid="translation">0.000000 0.000000 0.000000</translate>
					<rotate sid="rotation_z">0.000000 0.000000 1.000000 0.000000</rotate>
					<rotate sid="rotation_y">0.000000 1.000000 0.000000 0.000000</rotate>
					<rotate sid="rotation_x">1.000000 0.000000 0.000000 0.000000</rotate>
					<scale sid="scale">1.000000 1.000000 1.000000</scale>
					<node id="col-1" name="col-1">
						<translate sid="translation">0.000000 0.000000 0.000000</translate>
						<rotate sid="rotation_z">0.000000 0.000000 1.000000 0.000000</rotate>
						<rotate sid="rotation_y">0.000000 1.000000 0.000000 0.000000</rotate>
						<rotate sid="rotation_x">1.000000 0.000000 0.000000 0.000000</rotate>
						<scale sid="scale">1.000000 1.000000 1.000000</scale>
						<instance_geometry url="#geometries_0">
							<bind_material>
								<technique_common>
									<instance_material symbol="Street_Light" target="#Street_Light"></instance_material>
								</technique_common>
							</bind_material>
						</instance_geometry>
					</node>
					<node id="StreetLight200" name="StreetLight200">
						<translate sid="translation">0.000000 0.000000 0.000000</translate>
						<rotate sid="rotation_z">0.000000 0.000000 1.000000 0.000000</rotate>
						<rotate sid="rotation_y">0.000000 1.000000 0.000000 0.000000</rotate>
						<rotate sid="rotation_x">1.000000 0.000000 0.000000 0.000000</rotate>
						<scale sid="scale">1.000000 1.000000 1.000000</scale>
						<instance_geometry url="#geometries_1">
							<bind_material>
								<technique_common>
									<instance_material symbol="Street_Light" target="#Street_Light"></instance_material>
								</technique_common>
							</bind_material>
						</instance_geometry>
					</node>
					<node id="StreetLight60" name="StreetLight60">
						<translate sid="translation">0.000000 0.000000 0.000000</translate>
						<rotate sid="rotation_z">0.000000 0.000000 1.000000 0.000000</rotate>
						<rotate sid="rotation_y">0.000000 1.000000 0.000000 0.000000</rotate>
						<rotate sid="rotation_x">1.000000 0.000000 0.000000 0.000000</rotate>
						<scale sid="scale">1.000000 1.000000 1.000000</scale>
						<instance_geometry url="#geometries_2">
							<bind_material>
								<technique_common>
									<instance_material symbol="Street_LightLOD" target="#Street_LightLOD"></instance_material>
								</technique_common>
							</bind_material>
						</instance_geometry>
					</node>
					<node id="streetLight-1" name="streetLight-1">
						<translate sid="translation">0.000000 0.000000 0.000000</translate>
						<rotate sid="rotation_z">0.000000 0.000000 1.000000 0.000000</rotate>
						<rotate sid="rotation_y">0.000000 1.000000 0.000000 0.000000</rotate>
						<rotate sid="rotation_x">1.000000 0.000000 0.000000 0.000000</rotate>
						<scale sid="scale">0.001000 0.001000 0.001000</scale>
						<instance_geometry url="#geometries_3">
							<bind_material>
								<technique_common>
									<instance_material symbol="Street_LightLOD" target="#Street_LightLOD"></instance_material>
								</technique_common>
							</bind_material>
						</instance_geometry>
					</node>
					<node id="shadowmesh-2" name="shadowmesh-2">
						<translate sid="translation">-0.313879 15.858770 -1.812806</translate>
						<rotate sid="rotation_z">0.000000 0.000000 1.000000 0.000000</rotate>
						<rotate sid="rotation_y">0.000000 1.000000 0.000000 0.000000</rotate>
						<rotate sid="rotation_x">1.000000 0.000000 0.000000 0.000000</rotate>
						<scale sid="scale">0.186406 1.644280 0.221829</scale>
						<instance_geometry url="#geometries_4">
							<bind_material>
								<technique_common>
									<instance_material symbol="Street_Light" target="#Street_Light"></instance_material>
								</technique_common>
							</bind_material>
						</instance_geometry>
					</node>
				</node>
				<node id="collision1" name="collision1">
					<translate sid="translation">0.000000 0.000000 0.000000</translate>
					<rotate sid="rotation_z">0.000000 0.000000 1.000000 0.000000</rotate>
					<rotate sid="rotation_y">0.000000 1.000000 0.000000 0.000000</rotate>
					<rotate sid="rotation_x">1.000000 0.000000 0.000000 0.000000</rotate>
					<scale sid="scale">1.000000 1.000000 1.000000</scale>
				</node>
				<node id="shadowmesh1" name="shadowmesh1">
					<translate sid="translation">0.000000 0.000000 0.000000</translate>
					<rotate sid="rotation_z">0.000000 0.000000 1.000000 0.000000</rotate>
					<rotate sid="rotation_y">0.000000 1.000000 0.000000 0.000000</rotate>
					<rotate sid="rotation_x">1.000000 0.000000 0.000000 0.000000</rotate>
					<scale sid="scale">1.000000 1.000000 1.000000</scale>
				</node>
			</node>
		</visual_scene>
	</library_visual_scenes>
	<scene>
		<instance_visual_scene url="#visual_scenes_0"/>
	</scene>
</COLLADA>
